<?xml version="1.0" encoding="UTF-8" standalone="no"?>
<!-- Created with Inkscape (http://www.inkscape.org/) -->

<svg
   xmlns:dc="http://purl.org/dc/elements/1.1/"
   xmlns:cc="http://creativecommons.org/ns#"
   xmlns:rdf="http://www.w3.org/1999/02/22-rdf-syntax-ns#"
   xmlns:svg="http://www.w3.org/2000/svg"
   xmlns="http://www.w3.org/2000/svg"
   xmlns:xlink="http://www.w3.org/1999/xlink"
   xmlns:sodipodi="http://sodipodi.sourceforge.net/DTD/sodipodi-0.dtd"
   xmlns:inkscape="http://www.inkscape.org/namespaces/inkscape"
   width="64px"
   height="64px"
   id="svg23282"
   sodipodi:version="0.32"
   inkscape:version="0.48.4 r9939"
   sodipodi:docname="ic_weather_sun.svg"
   inkscape:output_extension="org.inkscape.output.svg.inkscape"
   version="1.1"
   inkscape:export-filename="/home/lukas/development/Android/CHMUpocasiProject/CHMUpocasi/src/main/res/drawable-hdpi/ic_weather_sun.png"
   inkscape:export-xdpi="101.25"
   inkscape:export-ydpi="101.25">
  <defs
     id="defs23284">
    <linearGradient
       id="linearGradient3799">
      <stop
         style="stop-color:#666f77;stop-opacity:1;"
         offset="0"
         id="stop3801" />
      <stop
         id="stop3811"
         offset="0.46500358"
         style="stop-color:#6e757c;stop-opacity:1;" />
      <stop
         id="stop3809"
         offset="0.58343458"
         style="stop-color:#a8adb2;stop-opacity:1;" />
      <stop
         style="stop-color:#eaeced;stop-opacity:1;"
         offset="1"
         id="stop3803" />
    </linearGradient>
    <linearGradient
       id="linearGradient3914">
      <stop
         id="stop3916"
         offset="0"
         style="stop-color:#ffffff;stop-opacity:0.80833334;" />
      <stop
         style="stop-color:#ffffff;stop-opacity:0.48333332;"
         offset="0.53998131"
         id="stop3918" />
      <stop
         id="stop3920"
         offset="1"
         style="stop-color:#ffffff;stop-opacity:0;" />
    </linearGradient>
    <linearGradient
       id="linearGradient3886">
      <stop
         style="stop-color:#ff9b16;stop-opacity:0.60833335;"
         offset="0"
         id="stop3888" />
      <stop
         id="stop3894"
         offset="0.76923078"
         style="stop-color:#ff9b16;stop-opacity:0.61666667;" />
      <stop
         style="stop-color:#ff9b16;stop-opacity:0;"
         offset="1"
         id="stop3890" />
    </linearGradient>
    <linearGradient
       id="linearGradient3839">
      <stop
         style="stop-color:#ffff52;stop-opacity:1;"
         offset="0"
         id="stop3841" />
      <stop
         id="stop3847"
         offset="0.81538463"
         style="stop-color:#ffff52;stop-opacity:1;" />
      <stop
         style="stop-color:#ffff52;stop-opacity:0;"
         offset="1"
         id="stop3843" />
    </linearGradient>
    <linearGradient
       id="linearGradient3768">
      <stop
         style="stop-color:#3a4a5b;stop-opacity:1;"
         offset="0"
         id="stop3770" />
      <stop
         id="stop3786"
         offset="0.81517267"
         style="stop-color:#b1bfcd;stop-opacity:1;" />
      <stop
         style="stop-color:#d8dfe6;stop-opacity:1;"
         offset="1"
         id="stop3772" />
    </linearGradient>
    <inkscape:path-effect
       effect="spiro"
       id="path-effect3771"
       is_visible="true" />
    <inkscape:path-effect
       effect="spiro"
       id="path-effect3767"
       is_visible="true" />
    <inkscape:path-effect
       effect="spiro"
       id="path-effect2995"
       is_visible="true" />
    <linearGradient
       id="linearGradient28545">
      <stop
         style="stop-color:#ffffff;stop-opacity:1;"
         offset="0"
         id="stop28547" />
      <stop
         style="stop-color:#ffffff;stop-opacity:0;"
         offset="1"
         id="stop28549" />
    </linearGradient>
    <radialGradient
       inkscape:collect="always"
       xlink:href="#linearGradient3768"
       id="radialGradient3788"
       cx="37.884304"
       cy="59.953907"
       fx="37.884304"
       fy="59.953907"
       r="21.934855"
       gradientTransform="matrix(1.9485805,0.00456696,-0.00317627,1.3552123,-36.553711,-20.820919)"
       gradientUnits="userSpaceOnUse" />
    <radialGradient
       inkscape:collect="always"
       xlink:href="#linearGradient3839"
       id="radialGradient3845"
       cx="-31.369827"
       cy="35.201469"
       fx="-31.369827"
       fy="35.201469"
       r="7.0341887"
       gradientUnits="userSpaceOnUse"
       gradientTransform="matrix(0.80558293,0,0,0.81962894,-6.0988309,6.3493275)" />
    <radialGradient
       inkscape:collect="always"
       xlink:href="#linearGradient3839-7"
       id="radialGradient3845-5"
       cx="-31.369827"
       cy="35.201469"
       fx="-31.369827"
       fy="35.201469"
       r="7.0341887"
       gradientUnits="userSpaceOnUse" />
    <linearGradient
       id="linearGradient3839-7">
      <stop
         style="stop-color:#ffff52;stop-opacity:1;"
         offset="0"
         id="stop3841-4" />
      <stop
         id="stop3847-8"
         offset="0.81538463"
         style="stop-color:#ffff52;stop-opacity:1;" />
      <stop
         style="stop-color:#ffff52;stop-opacity:0;"
         offset="1"
         id="stop3843-5" />
    </linearGradient>
    <radialGradient
       inkscape:collect="always"
       xlink:href="#linearGradient3886"
       id="radialGradient3892"
       cx="-31.369827"
       cy="35.201469"
       fx="-31.369827"
       fy="35.201469"
       r="7.283123"
       gradientUnits="userSpaceOnUse"
       gradientTransform="matrix(1.0213129,0,0,1.0879644,0.66858671,-3.0964722)" />
    <radialGradient
       inkscape:collect="always"
       xlink:href="#linearGradient3914"
       id="radialGradient3934"
       cx="88.967743"
       cy="36.58506"
       fx="88.967743"
       fy="36.58506"
       r="11.442273"
       gradientTransform="matrix(1.4045838,-0.43663748,0.34629482,1.1139678,-48.80001,34.596683)"
       gradientUnits="userSpaceOnUse" />
    <radialGradient
       inkscape:collect="always"
       xlink:href="#linearGradient3914"
       id="radialGradient3958"
       gradientUnits="userSpaceOnUse"
       gradientTransform="matrix(1.1344535,-0.64320811,0.57536272,1.0147917,-33.420117,56.534082)"
       cx="89.291534"
       cy="35.156277"
       fx="89.291534"
       fy="35.156277"
       r="11.442273" />
    <linearGradient
       inkscape:collect="always"
       xlink:href="#linearGradient3799"
       id="linearGradient3805"
       x1="41.845333"
       y1="61.312321"
       x2="31.348053"
       y2="27.575073"
       gradientUnits="userSpaceOnUse" />
    <radialGradient
       inkscape:collect="always"
       xlink:href="#linearGradient3886"
       id="radialGradient3047"
       gradientUnits="userSpaceOnUse"
       gradientTransform="matrix(1.0213129,0,0,1.0879644,0.66858671,-3.0964722)"
       cx="-31.369827"
       cy="35.201469"
       fx="-31.369827"
       fy="35.201469"
       r="7.283123" />
    <radialGradient
       inkscape:collect="always"
       xlink:href="#linearGradient3839"
       id="radialGradient3049"
       gradientUnits="userSpaceOnUse"
       gradientTransform="matrix(0.80558293,0,0,0.81962894,-6.0988309,6.3493275)"
       cx="-31.369827"
       cy="35.201469"
       fx="-31.369827"
       fy="35.201469"
       r="7.0341887" />
    <clipPath
       clipPathUnits="userSpaceOnUse"
       id="clipPath3868">
      <path
         style="fill:none;stroke:url(#linearGradient3872);stroke-width:1;stroke-linecap:butt;stroke-linejoin:miter;stroke-miterlimit:4;stroke-opacity:1;stroke-dasharray:none"
         d="m 100.65345,52.798274 c 17.2894,-0.282506 9.6677,-24.443847 -5.218284,-16.238563 3.556567,-2.95104 2.542485,-8.212493 1.227759,-10.292791 -3.08383,-4.87956 -13.699719,-7.113756 -18.176086,0.06057 -4.034399,6.465978 0.752124,10.223627 0.752124,10.223627 0,0 -3.709573,-4.658507 -11.816788,-2.23275 -6.27382,1.877188 -6.830071,8.055199 -6.611085,10.988086 0.393865,5.275062 4.90118,7.473227 6.691895,7.575259 21.444385,1.221866 33.150465,-0.08344 33.150465,-0.08344 z"
         id="path3870"
         inkscape:connector-curvature="0"
         sodipodi:nodetypes="scsscssss" />
    </clipPath>
    <linearGradient
       inkscape:collect="always"
       xlink:href="#linearGradient3799"
       id="linearGradient3872"
       gradientUnits="userSpaceOnUse"
       x1="41.845333"
       y1="61.312321"
       x2="31.348053"
       y2="27.575073"
       gradientTransform="matrix(-1,0,0,1,123.74982,-7.2836224)" />
    <clipPath
       clipPathUnits="userSpaceOnUse"
       id="clipPath3874">
      <path
         style="fill:none;stroke:url(#linearGradient3878);stroke-width:1;stroke-linecap:butt;stroke-linejoin:miter;stroke-miterlimit:4;stroke-opacity:1;stroke-dasharray:none"
         d="m 90.471644,45.616456 c 17.289396,-0.282506 9.667696,-24.443847 -5.218288,-16.238563 3.556567,-2.95104 2.542485,-8.212493 1.227759,-10.292791 -3.08383,-4.87956 -13.699719,-7.113756 -18.176086,0.06057 -4.034399,6.465978 0.752124,10.223627 0.752124,10.223627 0,0 -3.709573,-4.658507 -11.816788,-2.23275 -6.27382,1.877188 -6.830071,8.055199 -6.611085,10.988086 0.393865,5.275062 4.90118,7.473227 6.691895,7.575259 21.444385,1.221866 33.150469,-0.08344 33.150469,-0.08344 z"
         id="path3876"
         inkscape:connector-curvature="0"
         sodipodi:nodetypes="scsscssss" />
    </clipPath>
    <linearGradient
       inkscape:collect="always"
       xlink:href="#linearGradient3799"
       id="linearGradient3878"
       gradientUnits="userSpaceOnUse"
       x1="41.845333"
       y1="61.312321"
       x2="31.348053"
       y2="27.575073"
       gradientTransform="matrix(-1,0,0,1,113.56801,-14.46544)" />
  </defs>
  <sodipodi:namedview
     id="base"
     pagecolor="#ffffff"
     bordercolor="#666666"
     borderopacity="1.0"
     inkscape:pageopacity="0.0"
     inkscape:pageshadow="2"
     inkscape:zoom="7.7781746"
     inkscape:cx="18.693338"
     inkscape:cy="29.386665"
     inkscape:current-layer="layer1"
     showgrid="false"
     inkscape:document-units="px"
     inkscape:grid-bbox="true"
     inkscape:window-width="1680"
     inkscape:window-height="1030"
     inkscape:window-x="-2"
     inkscape:window-y="-3"
     inkscape:snap-nodes="true"
     inkscape:window-maximized="1" />
  <metadata
     id="metadata23287">
    <rdf:RDF>
      <cc:Work
         rdf:about="">
        <dc:format>image/svg+xml</dc:format>
        <dc:type
           rdf:resource="http://purl.org/dc/dcmitype/StillImage" />
        <dc:title></dc:title>
      </cc:Work>
    </rdf:RDF>
  </metadata>
  <g
     id="layer1"
     inkscape:label="Layer"
     inkscape:groupmode="layer"
     style="display:inline">
    <g
       id="g3102"
       transform="translate(-7.1996327,-6.2996786)">
      <path
         sodipodi:nodetypes="czczczczczczczczczczc"
         id="path24662"
         d="m 49.490594,49.452363 c 0,0 -9.330811,-8.503988 -13.298538,-6.482331 -3.967726,2.021656 -2.572365,14.568962 -2.572365,14.568962 0,0 -2.550265,-12.364388 -6.94852,-13.061004 -4.398256,-0.696614 -10.644506,10.274541 -10.644506,10.274541 0,0 5.204395,-11.502005 2.055591,-14.650811 -3.148804,-3.148804 -14.6508113,2.055593 -14.6508113,2.055593 0,0 10.9711563,-6.246249 10.2745403,-10.644507 -0.696614,-4.398257 -13.06100289,-6.948522 -13.06100289,-6.948522 0,0 12.54730689,1.395361 14.56896289,-2.572364 C 17.235603,18.024196 8.7316101,8.6933843 8.7316101,8.6933843 c 0,0 9.3308129,8.5039907 13.2985369,6.4823337 3.967727,-2.021656 2.572364,-14.56896162 2.572364,-14.56896162 0,0 2.550265,12.36438762 6.948522,13.06100362 4.398258,0.696614 10.644507,-10.274541 10.644507,-10.274541 0,0 -5.204398,11.502006 -2.055595,14.65081 3.148807,3.148803 14.650813,-2.055592 14.650813,-2.055592 0,0 -10.971155,6.246251 -10.274541,10.644507 0.696616,4.39826 13.061004,6.94852 13.061004,6.94852 0,0 -12.547306,-1.395359 -14.568962,2.572365 -2.021657,3.967725 6.482335,13.298534 6.482335,13.298534 z"
         style="fill:#ffe600;fill-opacity:1;fill-rule:nonzero;stroke:#ffcd00;stroke-width:1.10539424;stroke-miterlimit:4;stroke-opacity:1"
         inkscape:connector-curvature="0" />
      <g
         id="g3071">
        <path
           sodipodi:type="arc"
           style="opacity:0.6;fill:url(#radialGradient3047);fill-opacity:1;fill-rule:nonzero;stroke:none"
           id="path24665-5"
           sodipodi:cx="-31.369827"
           sodipodi:cy="35.201469"
           sodipodi:rx="8.4272738"
           sodipodi:ry="8.4272738"
           d="m -22.942554,35.201469 c 0,4.654255 -3.773018,8.427274 -8.427273,8.427274 -4.654255,0 -8.427274,-3.773019 -8.427274,-8.427274 0,-4.654254 3.773019,-8.427273 8.427274,-8.427273 4.654255,0 8.427273,3.773019 8.427273,8.427273 z"
           transform="matrix(2.0658432,0,0,2.0658432,93.916245,-43.647841)" />
        <path
           sodipodi:type="arc"
           style="fill:url(#radialGradient3049);fill-opacity:1;fill-rule:nonzero;stroke:none"
           id="path24665"
           sodipodi:cx="-31.369827"
           sodipodi:cy="35.201469"
           sodipodi:rx="7.0341887"
           sodipodi:ry="7.0341887"
           d="m -24.335639,35.201469 c 0,3.884876 -3.149313,7.034189 -7.034188,7.034189 -3.884875,0 -7.034189,-3.149313 -7.034189,-7.034189 0,-3.884875 3.149314,-7.034188 7.034189,-7.034188 3.884875,0 7.034188,3.149313 7.034188,7.034188 z"
           transform="matrix(2.0658432,0,0,2.0658432,93.916245,-43.647841)" />
      </g>
    </g>
  </g>
</svg>
