<?xml version="1.0" encoding="UTF-8" standalone="no"?>
<!-- Created with Inkscape (http://www.inkscape.org/) -->

<svg
   xmlns:dc="http://purl.org/dc/elements/1.1/"
   xmlns:cc="http://creativecommons.org/ns#"
   xmlns:rdf="http://www.w3.org/1999/02/22-rdf-syntax-ns#"
   xmlns:svg="http://www.w3.org/2000/svg"
   xmlns="http://www.w3.org/2000/svg"
   xmlns:xlink="http://www.w3.org/1999/xlink"
   xmlns:sodipodi="http://sodipodi.sourceforge.net/DTD/sodipodi-0.dtd"
   xmlns:inkscape="http://www.inkscape.org/namespaces/inkscape"
   width="64px"
   height="64px"
   id="svg23282"
   sodipodi:version="0.32"
   inkscape:version="0.48.4 r9939"
   sodipodi:docname="ic_weather_clouds_basic.svg"
   inkscape:output_extension="org.inkscape.output.svg.inkscape"
   version="1.1"
   inkscape:export-filename="/home/lukas/development/Android/CHMUpocasiProject/CHMUpocasi/src/main/res/drawable-hdpi/ic_weather_clouds_basic.png"
   inkscape:export-xdpi="101.25"
   inkscape:export-ydpi="101.25">
  <defs
     id="defs23284">
    <linearGradient
       id="linearGradient3799">
      <stop
         style="stop-color:#666f77;stop-opacity:1;"
         offset="0"
         id="stop3801" />
      <stop
         id="stop3811"
         offset="0.46500358"
         style="stop-color:#6e757c;stop-opacity:1;" />
      <stop
         id="stop3809"
         offset="0.58343458"
         style="stop-color:#a8adb2;stop-opacity:1;" />
      <stop
         style="stop-color:#eaeced;stop-opacity:1;"
         offset="1"
         id="stop3803" />
    </linearGradient>
    <linearGradient
       id="linearGradient3914">
      <stop
         id="stop3916"
         offset="0"
         style="stop-color:#ffffff;stop-opacity:1;" />
      <stop
         style="stop-color:#ffffff;stop-opacity:0.48333332;"
         offset="0.53998131"
         id="stop3918" />
      <stop
         id="stop3920"
         offset="1"
         style="stop-color:#ffffff;stop-opacity:0;" />
    </linearGradient>
    <linearGradient
       id="linearGradient3886">
      <stop
         style="stop-color:#ff9b16;stop-opacity:0.60833335;"
         offset="0"
         id="stop3888" />
      <stop
         id="stop3894"
         offset="0.76923078"
         style="stop-color:#ff9b16;stop-opacity:0.61666667;" />
      <stop
         style="stop-color:#ff9b16;stop-opacity:0;"
         offset="1"
         id="stop3890" />
    </linearGradient>
    <linearGradient
       id="linearGradient3839">
      <stop
         style="stop-color:#ffff52;stop-opacity:1;"
         offset="0"
         id="stop3841" />
      <stop
         id="stop3847"
         offset="0.81538463"
         style="stop-color:#ffff52;stop-opacity:1;" />
      <stop
         style="stop-color:#ffff52;stop-opacity:0;"
         offset="1"
         id="stop3843" />
    </linearGradient>
    <linearGradient
       id="linearGradient3768">
      <stop
         style="stop-color:#566472;stop-opacity:0.82352942;"
         offset="0"
         id="stop3770" />
      <stop
         id="stop3786"
         offset="0.81517267"
         style="stop-color:#b1bfcd;stop-opacity:1;" />
      <stop
         style="stop-color:#d8dfe6;stop-opacity:1;"
         offset="1"
         id="stop3772" />
    </linearGradient>
    <inkscape:path-effect
       effect="spiro"
       id="path-effect3771"
       is_visible="true" />
    <inkscape:path-effect
       effect="spiro"
       id="path-effect3767"
       is_visible="true" />
    <inkscape:path-effect
       effect="spiro"
       id="path-effect2995"
       is_visible="true" />
    <linearGradient
       id="linearGradient28545">
      <stop
         style="stop-color:#ffffff;stop-opacity:1;"
         offset="0"
         id="stop28547" />
      <stop
         style="stop-color:#ffffff;stop-opacity:0;"
         offset="1"
         id="stop28549" />
    </linearGradient>
    <radialGradient
       inkscape:collect="always"
       xlink:href="#linearGradient3768"
       id="radialGradient3788"
       cx="37.884304"
       cy="59.953907"
       fx="37.884304"
       fy="59.953907"
       r="21.934855"
       gradientTransform="matrix(1.9485805,0.00456696,-0.00317627,1.3552123,-36.553711,-20.820919)"
       gradientUnits="userSpaceOnUse" />
    <radialGradient
       inkscape:collect="always"
       xlink:href="#linearGradient3839"
       id="radialGradient3845"
       cx="-31.369827"
       cy="35.201469"
       fx="-31.369827"
       fy="35.201469"
       r="7.0341887"
       gradientUnits="userSpaceOnUse"
       gradientTransform="matrix(0.80558293,0,0,0.81962894,-6.0988309,6.3493275)" />
    <radialGradient
       inkscape:collect="always"
       xlink:href="#linearGradient3839-7"
       id="radialGradient3845-5"
       cx="-31.369827"
       cy="35.201469"
       fx="-31.369827"
       fy="35.201469"
       r="7.0341887"
       gradientUnits="userSpaceOnUse" />
    <linearGradient
       id="linearGradient3839-7">
      <stop
         style="stop-color:#ffff52;stop-opacity:1;"
         offset="0"
         id="stop3841-4" />
      <stop
         id="stop3847-8"
         offset="0.81538463"
         style="stop-color:#ffff52;stop-opacity:1;" />
      <stop
         style="stop-color:#ffff52;stop-opacity:0;"
         offset="1"
         id="stop3843-5" />
    </linearGradient>
    <radialGradient
       inkscape:collect="always"
       xlink:href="#linearGradient3886"
       id="radialGradient3892"
       cx="-31.369827"
       cy="35.201469"
       fx="-31.369827"
       fy="35.201469"
       r="7.283123"
       gradientUnits="userSpaceOnUse"
       gradientTransform="matrix(1.0213129,0,0,1.0879644,0.66858671,-3.0964722)" />
    <radialGradient
       inkscape:collect="always"
       xlink:href="#linearGradient3914"
       id="radialGradient3934"
       cx="88.967743"
       cy="36.58506"
       fx="88.967743"
       fy="36.58506"
       r="11.442273"
       gradientTransform="matrix(1.4045838,-0.43663748,0.34629482,1.1139678,-48.80001,34.596683)"
       gradientUnits="userSpaceOnUse" />
    <radialGradient
       inkscape:collect="always"
       xlink:href="#linearGradient3914"
       id="radialGradient3958"
       gradientUnits="userSpaceOnUse"
       gradientTransform="matrix(1.1344535,-0.64320811,0.57536272,1.0147917,-33.420117,56.534082)"
       cx="89.291534"
       cy="35.156277"
       fx="89.291534"
       fy="35.156277"
       r="11.442273" />
    <linearGradient
       inkscape:collect="always"
       xlink:href="#linearGradient3799"
       id="linearGradient3805"
       x1="41.845333"
       y1="61.312321"
       x2="31.348053"
       y2="27.575073"
       gradientUnits="userSpaceOnUse" />
    <radialGradient
       inkscape:collect="always"
       xlink:href="#linearGradient3886"
       id="radialGradient3047"
       gradientUnits="userSpaceOnUse"
       gradientTransform="matrix(1.0213129,0,0,1.0879644,0.66858671,-3.0964722)"
       cx="-31.369827"
       cy="35.201469"
       fx="-31.369827"
       fy="35.201469"
       r="7.283123" />
    <radialGradient
       inkscape:collect="always"
       xlink:href="#linearGradient3839"
       id="radialGradient3049"
       gradientUnits="userSpaceOnUse"
       gradientTransform="matrix(0.80558293,0,0,0.81962894,-6.0988309,6.3493275)"
       cx="-31.369827"
       cy="35.201469"
       fx="-31.369827"
       fy="35.201469"
       r="7.0341887" />
    <linearGradient
       inkscape:collect="always"
       xlink:href="#linearGradient3799"
       id="linearGradient3872"
       gradientUnits="userSpaceOnUse"
       x1="41.845333"
       y1="61.312321"
       x2="31.348053"
       y2="27.575073"
       gradientTransform="matrix(-1,0,0,1,123.74982,-7.2836224)" />
    <linearGradient
       inkscape:collect="always"
       xlink:href="#linearGradient3799"
       id="linearGradient3878"
       gradientUnits="userSpaceOnUse"
       x1="41.845333"
       y1="61.312321"
       x2="31.348053"
       y2="27.575073"
       gradientTransform="matrix(-1,0,0,1,113.56801,-14.46544)" />
    <radialGradient
       inkscape:collect="always"
       xlink:href="#linearGradient3768"
       id="radialGradient3178"
       gradientUnits="userSpaceOnUse"
       gradientTransform="matrix(1.9485805,0.00456696,-0.00317627,1.3552123,-36.553711,-20.820919)"
       cx="37.884304"
       cy="59.953907"
       fx="37.884304"
       fy="59.953907"
       r="21.934855" />
    <radialGradient
       inkscape:collect="always"
       xlink:href="#linearGradient3914"
       id="radialGradient3180"
       gradientUnits="userSpaceOnUse"
       gradientTransform="matrix(1.4045838,-0.43663748,0.34629482,1.1139678,-48.80001,34.596683)"
       cx="88.967743"
       cy="36.58506"
       fx="88.967743"
       fy="36.58506"
       r="11.442273" />
    <radialGradient
       inkscape:collect="always"
       xlink:href="#linearGradient3914"
       id="radialGradient3182"
       gradientUnits="userSpaceOnUse"
       gradientTransform="matrix(1.1344535,-0.64320811,0.57536272,1.0147917,-33.420117,56.534082)"
       cx="89.291534"
       cy="35.156277"
       fx="89.291534"
       fy="35.156277"
       r="11.442273" />
    <linearGradient
       inkscape:collect="always"
       xlink:href="#linearGradient3799"
       id="linearGradient3184"
       gradientUnits="userSpaceOnUse"
       x1="41.845333"
       y1="61.312321"
       x2="31.348053"
       y2="27.575073" />
    <linearGradient
       inkscape:collect="always"
       xlink:href="#linearGradient3799"
       id="linearGradient3187"
       gradientUnits="userSpaceOnUse"
       x1="41.845333"
       y1="61.312321"
       x2="31.348053"
       y2="27.575073"
       gradientTransform="matrix(1.0608329,0,0,1.0007524,-5.4018289,-13.518441)" />
    <radialGradient
       inkscape:collect="always"
       xlink:href="#linearGradient3768"
       id="radialGradient3192"
       gradientUnits="userSpaceOnUse"
       gradientTransform="matrix(2.0671183,0.0045704,-0.00336949,1.356232,-41.993605,-34.355026)"
       cx="37.884304"
       cy="59.953907"
       fx="37.884304"
       fy="59.953907"
       r="21.934855" />
    <radialGradient
       inkscape:collect="always"
       xlink:href="#linearGradient3768"
       id="radialGradient3978"
       cx="37.495739"
       cy="55.442505"
       fx="37.495739"
       fy="55.442505"
       r="26.766827"
       gradientTransform="matrix(1.3033056,-0.04203441,0.03235024,1.0030415,-15.198359,-8.1174512)"
       gradientUnits="userSpaceOnUse" />
    <radialGradient
       inkscape:collect="always"
       xlink:href="#linearGradient3914"
       id="radialGradient3982"
       gradientUnits="userSpaceOnUse"
       gradientTransform="matrix(1.1344535,-0.64320811,0.57536272,1.0147917,-33.420117,56.534082)"
       cx="89.291534"
       cy="35.156277"
       fx="89.291534"
       fy="35.156277"
       r="11.442273" />
    <radialGradient
       inkscape:collect="always"
       xlink:href="#linearGradient3914"
       id="radialGradient3984"
       gradientUnits="userSpaceOnUse"
       gradientTransform="matrix(1.4045838,-0.43663748,0.34629482,1.1139678,-48.80001,34.596683)"
       cx="88.967743"
       cy="36.58506"
       fx="88.967743"
       fy="36.58506"
       r="11.442273" />
    <linearGradient
       inkscape:collect="always"
       xlink:href="#linearGradient3799"
       id="linearGradient3052"
       gradientUnits="userSpaceOnUse"
       gradientTransform="matrix(1.0608329,0,0,1.0007524,-33.962099,-3.8105504)"
       x1="41.845333"
       y1="61.312321"
       x2="31.348053"
       y2="27.575073" />
    <linearGradient
       inkscape:collect="always"
       xlink:href="#linearGradient3799"
       id="linearGradient3055"
       gradientUnits="userSpaceOnUse"
       gradientTransform="matrix(1.0608329,0,0,1.0007524,-5.4018214,-13.518441)"
       x1="41.845333"
       y1="61.312321"
       x2="31.348053"
       y2="27.575073" />
    <clipPath
       clipPathUnits="userSpaceOnUse"
       id="clipPath3067">
      <path
         style="fill:none;stroke:url(#linearGradient3071);stroke-width:1;stroke-linecap:butt;stroke-linejoin:miter;stroke-miterlimit:4;stroke-opacity:1;stroke-dasharray:none"
         d="m 98.411394,54.725297 c 16.501646,-0.34674 8.031596,-22.452591 -4.85471,-13.797667 1.413997,-6.4493 -0.838026,-10.595244 -5.071475,-11.645372 -8.94056,-2.217751 -9.609824,7.397327 -9.609824,7.397327 0,0 -3.039538,-5.55872 -8.261251,-3.503418 -2.476829,0.974897 -4.349625,2.819856 -4.161499,7.951014 -4.750503,-3.115237 -10.184374,0.954939 -9.822683,6.684402 0.383588,6.076347 6.840258,6.89512 8.630973,6.997151 21.444385,1.221867 33.150469,-0.08344 33.150469,-0.08344 z"
         id="path3069"
         inkscape:connector-curvature="0"
         sodipodi:nodetypes="scscscsss" />
    </clipPath>
    <linearGradient
       inkscape:collect="always"
       xlink:href="#linearGradient3799"
       id="linearGradient3071"
       gradientUnits="userSpaceOnUse"
       gradientTransform="matrix(-1,0,0,1,121.50776,-5.3565993)"
       x1="41.845333"
       y1="61.312321"
       x2="31.348053"
       y2="27.575073" />
    <clipPath
       clipPathUnits="userSpaceOnUse"
       id="clipPath3077">
      <path
         style="fill:none;stroke:url(#linearGradient3081);stroke-width:1;stroke-linecap:butt;stroke-linejoin:miter;stroke-miterlimit:4;stroke-opacity:1;stroke-dasharray:none"
         d="m 90.471651,45.616456 c 16.501649,-0.34674 8.031597,-22.45259 -4.85471,-13.797666 1.413998,-6.449301 -0.838025,-10.595244 -5.071474,-11.645372 -8.94056,-2.217752 -9.609825,7.397326 -9.609825,7.397326 0,0 -3.039537,-5.55872 -8.26125,-3.503418 -2.476829,0.974897 -4.349626,2.819856 -4.1615,7.951015 -4.750502,-3.115237 -10.184373,0.954938 -9.822683,6.684401 0.383589,6.076347 6.840259,6.89512 8.630973,6.997152 21.444385,1.221866 33.150469,-0.08344 33.150469,-0.08344 z"
         id="path3079"
         inkscape:connector-curvature="0"
         sodipodi:nodetypes="scscscsss" />
    </clipPath>
    <linearGradient
       inkscape:collect="always"
       xlink:href="#linearGradient3799"
       id="linearGradient3081"
       gradientUnits="userSpaceOnUse"
       gradientTransform="matrix(-1,0,0,1,113.56802,-14.46544)"
       x1="41.845333"
       y1="61.312321"
       x2="31.348053"
       y2="27.575073" />
  </defs>
  <sodipodi:namedview
     id="base"
     pagecolor="#ffffff"
     bordercolor="#666666"
     borderopacity="1.0"
     inkscape:pageopacity="0.0"
     inkscape:pageshadow="2"
     inkscape:zoom="11"
     inkscape:cx="36.950411"
     inkscape:cy="31.443958"
     inkscape:current-layer="layer1"
     showgrid="false"
     inkscape:document-units="px"
     inkscape:grid-bbox="true"
     inkscape:window-width="1680"
     inkscape:window-height="1030"
     inkscape:window-x="-2"
     inkscape:window-y="-3"
     inkscape:snap-nodes="true"
     inkscape:window-maximized="1" />
  <metadata
     id="metadata23287">
    <rdf:RDF>
      <cc:Work
         rdf:about="">
        <dc:format>image/svg+xml</dc:format>
        <dc:type
           rdf:resource="http://purl.org/dc/dcmitype/StillImage" />
        <dc:title />
      </cc:Work>
    </rdf:RDF>
  </metadata>
  <g
     id="layer1"
     inkscape:label="Layer"
     inkscape:groupmode="layer"
     style="display:inline">
    <path
       style="fill:url(#radialGradient3978);fill-opacity:1;stroke:none"
       d="M 19.099556,46.608661 C 0.75839412,46.325942 12.209276,23.205352 24.589832,33.221516 22.57745,27.281622 25.124778,22.151703 29.772403,21.179012 c 9.459876,-1.979837 10.051594,7.370359 10.051594,7.370359 0,0 3.224441,-5.562902 8.763806,-3.506054 2.627502,0.975631 4.614226,2.821978 4.414656,7.956997 5.039489,-3.117581 10.46169,0.866734 10.613072,6.046607 0.190413,6.515403 -7.449218,7.543132 -9.348867,7.64524 -22.748909,1.222786 -35.167108,-0.0835 -35.167108,-0.0835 z"
       id="path3194"
       inkscape:connector-curvature="0"
       sodipodi:nodetypes="scscscsss" />
    <path
       sodipodi:type="arc"
       style="fill:url(#radialGradient3984);fill-opacity:1;stroke:none"
       id="path3926"
       sodipodi:cx="87.93837"
       sodipodi:cy="35.394318"
       sodipodi:rx="25.584408"
       sodipodi:ry="13.820724"
       d="m 113.52278,35.394318 a 25.584408,13.820724 0 1 1 -51.168818,0 25.584408,13.820724 0 1 1 51.168818,0 z"
       transform="matrix(-1.0608329,0,0,1.0007524,115.07486,0.9578828)"
       clip-path="url(#clipPath3077)" />
    <path
       transform="matrix(-1.0608329,0,0,1.0007524,123.4976,-8.1578114)"
       d="m 107.25005,35.394318 a 19.31168,16.002542 0 1 1 -38.62336,0 19.31168,16.002542 0 1 1 38.62336,0 z"
       sodipodi:ry="16.002542"
       sodipodi:rx="19.31168"
       sodipodi:cy="35.394318"
       sodipodi:cx="87.93837"
       id="path3954"
       style="fill:url(#radialGradient3982);fill-opacity:1;stroke:none"
       sodipodi:type="arc"
       clip-path="url(#clipPath3067)" />
    <path
       sodipodi:nodetypes="scscscsss"
       inkscape:connector-curvature="0"
       id="path3029"
       d="M 19.099556,46.608661 C 1.5940658,46.26166 10.579374,24.139177 24.249592,32.800613 22.749577,26.34646 25.138597,22.197397 29.629579,21.146479 c 9.48444,-2.21942 10.194418,7.402892 10.194418,7.402892 0,0 3.224441,-5.562902 8.763806,-3.506054 2.627502,0.975631 4.614226,2.821978 4.414656,7.956997 5.039489,-3.117581 10.803918,0.955657 10.420225,6.689431 -0.406923,6.080919 -7.256371,6.900308 -9.15602,7.002416 -22.748909,1.222786 -35.167108,-0.0835 -35.167108,-0.0835 z"
       style="fill:none;stroke:url(#linearGradient3187);stroke-width:1.03035486;stroke-linecap:butt;stroke-linejoin:miter;stroke-miterlimit:4;stroke-opacity:1;stroke-dasharray:none" />
  </g>
</svg>
