<?xml version="1.0" encoding="UTF-8" standalone="no"?>
<!-- Created with Inkscape (http://www.inkscape.org/) -->

<svg
   xmlns:dc="http://purl.org/dc/elements/1.1/"
   xmlns:cc="http://creativecommons.org/ns#"
   xmlns:rdf="http://www.w3.org/1999/02/22-rdf-syntax-ns#"
   xmlns:svg="http://www.w3.org/2000/svg"
   xmlns="http://www.w3.org/2000/svg"
   xmlns:xlink="http://www.w3.org/1999/xlink"
   xmlns:sodipodi="http://sodipodi.sourceforge.net/DTD/sodipodi-0.dtd"
   xmlns:inkscape="http://www.inkscape.org/namespaces/inkscape"
   width="64px"
   height="64px"
   id="svg23282"
   sodipodi:version="0.32"
   inkscape:version="0.48.4 r9939"
   sodipodi:docname="ic_weather_snow.svg"
   inkscape:output_extension="org.inkscape.output.svg.inkscape"
   version="1.1"
   inkscape:export-filename="/home/lukas/development/Android/CHMUpocasiProject/CHMUpocasi/src/main/res/drawable-hdpi/ic_weather_snow.png"
   inkscape:export-xdpi="101.25"
   inkscape:export-ydpi="101.25">
  <defs
     id="defs23284">
    <linearGradient
       id="linearGradient3799">
      <stop
         style="stop-color:#666f77;stop-opacity:1;"
         offset="0"
         id="stop3801" />
      <stop
         id="stop3811"
         offset="0.46500358"
         style="stop-color:#6e757c;stop-opacity:1;" />
      <stop
         id="stop3809"
         offset="0.58343458"
         style="stop-color:#a8adb2;stop-opacity:1;" />
      <stop
         style="stop-color:#eaeced;stop-opacity:1;"
         offset="1"
         id="stop3803" />
    </linearGradient>
    <linearGradient
       id="linearGradient3914">
      <stop
         id="stop3916"
         offset="0"
         style="stop-color:#ffffff;stop-opacity:1;" />
      <stop
         style="stop-color:#ffffff;stop-opacity:0.48333332;"
         offset="0.53998131"
         id="stop3918" />
      <stop
         id="stop3920"
         offset="1"
         style="stop-color:#ffffff;stop-opacity:0;" />
    </linearGradient>
    <linearGradient
       id="linearGradient3886">
      <stop
         style="stop-color:#ff9b16;stop-opacity:0.60833335;"
         offset="0"
         id="stop3888" />
      <stop
         id="stop3894"
         offset="0.76923078"
         style="stop-color:#ff9b16;stop-opacity:0.61666667;" />
      <stop
         style="stop-color:#ff9b16;stop-opacity:0;"
         offset="1"
         id="stop3890" />
    </linearGradient>
    <linearGradient
       id="linearGradient3839">
      <stop
         style="stop-color:#ffff52;stop-opacity:1;"
         offset="0"
         id="stop3841" />
      <stop
         id="stop3847"
         offset="0.81538463"
         style="stop-color:#ffff52;stop-opacity:1;" />
      <stop
         style="stop-color:#ffff52;stop-opacity:0;"
         offset="1"
         id="stop3843" />
    </linearGradient>
    <linearGradient
       id="linearGradient3768">
      <stop
         style="stop-color:#566472;stop-opacity:0.82352942;"
         offset="0"
         id="stop3770" />
      <stop
         id="stop3786"
         offset="0.81517267"
         style="stop-color:#b1bfcd;stop-opacity:1;" />
      <stop
         style="stop-color:#d8dfe6;stop-opacity:1;"
         offset="1"
         id="stop3772" />
    </linearGradient>
    <inkscape:path-effect
       effect="spiro"
       id="path-effect3771"
       is_visible="true" />
    <inkscape:path-effect
       effect="spiro"
       id="path-effect3767"
       is_visible="true" />
    <inkscape:path-effect
       effect="spiro"
       id="path-effect2995"
       is_visible="true" />
    <linearGradient
       id="linearGradient28545">
      <stop
         style="stop-color:#ffffff;stop-opacity:1;"
         offset="0"
         id="stop28547" />
      <stop
         style="stop-color:#ffffff;stop-opacity:0;"
         offset="1"
         id="stop28549" />
    </linearGradient>
    <radialGradient
       inkscape:collect="always"
       xlink:href="#linearGradient3768"
       id="radialGradient3788"
       cx="37.884304"
       cy="59.953907"
       fx="37.884304"
       fy="59.953907"
       r="21.934855"
       gradientTransform="matrix(1.9485805,0.00456696,-0.00317627,1.3552123,-36.553711,-20.820919)"
       gradientUnits="userSpaceOnUse" />
    <radialGradient
       inkscape:collect="always"
       xlink:href="#linearGradient3839"
       id="radialGradient3845"
       cx="-31.369827"
       cy="35.201469"
       fx="-31.369827"
       fy="35.201469"
       r="7.0341887"
       gradientUnits="userSpaceOnUse"
       gradientTransform="matrix(0.80558293,0,0,0.81962894,-6.0988309,6.3493275)" />
    <radialGradient
       inkscape:collect="always"
       xlink:href="#linearGradient3839-7"
       id="radialGradient3845-5"
       cx="-31.369827"
       cy="35.201469"
       fx="-31.369827"
       fy="35.201469"
       r="7.0341887"
       gradientUnits="userSpaceOnUse" />
    <linearGradient
       id="linearGradient3839-7">
      <stop
         style="stop-color:#ffff52;stop-opacity:1;"
         offset="0"
         id="stop3841-4" />
      <stop
         id="stop3847-8"
         offset="0.81538463"
         style="stop-color:#ffff52;stop-opacity:1;" />
      <stop
         style="stop-color:#ffff52;stop-opacity:0;"
         offset="1"
         id="stop3843-5" />
    </linearGradient>
    <radialGradient
       inkscape:collect="always"
       xlink:href="#linearGradient3886"
       id="radialGradient3892"
       cx="-31.369827"
       cy="35.201469"
       fx="-31.369827"
       fy="35.201469"
       r="7.283123"
       gradientUnits="userSpaceOnUse"
       gradientTransform="matrix(1.0213129,0,0,1.0879644,0.66858671,-3.0964722)" />
    <radialGradient
       inkscape:collect="always"
       xlink:href="#linearGradient3914"
       id="radialGradient3934"
       cx="88.967743"
       cy="36.58506"
       fx="88.967743"
       fy="36.58506"
       r="11.442273"
       gradientTransform="matrix(1.4045838,-0.43663748,0.34629482,1.1139678,-48.80001,34.596683)"
       gradientUnits="userSpaceOnUse" />
    <radialGradient
       inkscape:collect="always"
       xlink:href="#linearGradient3914"
       id="radialGradient3958"
       gradientUnits="userSpaceOnUse"
       gradientTransform="matrix(1.1344535,-0.64320811,0.57536272,1.0147917,-33.420117,56.534082)"
       cx="89.291534"
       cy="35.156277"
       fx="89.291534"
       fy="35.156277"
       r="11.442273" />
    <linearGradient
       inkscape:collect="always"
       xlink:href="#linearGradient3799"
       id="linearGradient3805"
       x1="41.845333"
       y1="61.312321"
       x2="31.348053"
       y2="27.575073"
       gradientUnits="userSpaceOnUse" />
    <radialGradient
       inkscape:collect="always"
       xlink:href="#linearGradient3886"
       id="radialGradient3047"
       gradientUnits="userSpaceOnUse"
       gradientTransform="matrix(1.0213129,0,0,1.0879644,0.66858671,-3.0964722)"
       cx="-31.369827"
       cy="35.201469"
       fx="-31.369827"
       fy="35.201469"
       r="7.283123" />
    <radialGradient
       inkscape:collect="always"
       xlink:href="#linearGradient3839"
       id="radialGradient3049"
       gradientUnits="userSpaceOnUse"
       gradientTransform="matrix(0.80558293,0,0,0.81962894,-6.0988309,6.3493275)"
       cx="-31.369827"
       cy="35.201469"
       fx="-31.369827"
       fy="35.201469"
       r="7.0341887" />
    <linearGradient
       inkscape:collect="always"
       xlink:href="#linearGradient3799"
       id="linearGradient3872"
       gradientUnits="userSpaceOnUse"
       x1="41.845333"
       y1="61.312321"
       x2="31.348053"
       y2="27.575073"
       gradientTransform="matrix(-1,0,0,1,123.74982,-7.2836224)" />
    <linearGradient
       inkscape:collect="always"
       xlink:href="#linearGradient3799"
       id="linearGradient3878"
       gradientUnits="userSpaceOnUse"
       x1="41.845333"
       y1="61.312321"
       x2="31.348053"
       y2="27.575073"
       gradientTransform="matrix(-1,0,0,1,113.56801,-14.46544)" />
    <radialGradient
       inkscape:collect="always"
       xlink:href="#linearGradient3768"
       id="radialGradient3178"
       gradientUnits="userSpaceOnUse"
       gradientTransform="matrix(1.9485805,0.00456696,-0.00317627,1.3552123,-36.553711,-20.820919)"
       cx="37.884304"
       cy="59.953907"
       fx="37.884304"
       fy="59.953907"
       r="21.934855" />
    <radialGradient
       inkscape:collect="always"
       xlink:href="#linearGradient3914"
       id="radialGradient3180"
       gradientUnits="userSpaceOnUse"
       gradientTransform="matrix(1.4045838,-0.43663748,0.34629482,1.1139678,-48.80001,34.596683)"
       cx="88.967743"
       cy="36.58506"
       fx="88.967743"
       fy="36.58506"
       r="11.442273" />
    <radialGradient
       inkscape:collect="always"
       xlink:href="#linearGradient3914"
       id="radialGradient3182"
       gradientUnits="userSpaceOnUse"
       gradientTransform="matrix(1.1344535,-0.64320811,0.57536272,1.0147917,-33.420117,56.534082)"
       cx="89.291534"
       cy="35.156277"
       fx="89.291534"
       fy="35.156277"
       r="11.442273" />
    <linearGradient
       inkscape:collect="always"
       xlink:href="#linearGradient3799"
       id="linearGradient3184"
       gradientUnits="userSpaceOnUse"
       x1="41.845333"
       y1="61.312321"
       x2="31.348053"
       y2="27.575073" />
    <linearGradient
       inkscape:collect="always"
       xlink:href="#linearGradient3799"
       id="linearGradient3187"
       gradientUnits="userSpaceOnUse"
       x1="41.845333"
       y1="61.312321"
       x2="31.348053"
       y2="27.575073"
       gradientTransform="matrix(1.0608329,0,0,1.0007524,-5.4018289,-13.518441)" />
    <radialGradient
       inkscape:collect="always"
       xlink:href="#linearGradient3768"
       id="radialGradient3192"
       gradientUnits="userSpaceOnUse"
       gradientTransform="matrix(2.0671183,0.0045704,-0.00336949,1.356232,-41.993605,-34.355026)"
       cx="37.884304"
       cy="59.953907"
       fx="37.884304"
       fy="59.953907"
       r="21.934855" />
    <radialGradient
       inkscape:collect="always"
       xlink:href="#linearGradient3768"
       id="radialGradient3978"
       cx="37.495739"
       cy="55.442505"
       fx="37.495739"
       fy="55.442505"
       r="26.766827"
       gradientTransform="matrix(1.3033056,-0.04203441,0.03235024,1.0030415,-15.198359,-8.1174512)"
       gradientUnits="userSpaceOnUse" />
    <radialGradient
       inkscape:collect="always"
       xlink:href="#linearGradient3914"
       id="radialGradient3982"
       gradientUnits="userSpaceOnUse"
       gradientTransform="matrix(1.1344535,-0.64320811,0.57536272,1.0147917,-33.420117,56.534082)"
       cx="89.291534"
       cy="35.156277"
       fx="89.291534"
       fy="35.156277"
       r="11.442273" />
    <radialGradient
       inkscape:collect="always"
       xlink:href="#linearGradient3914"
       id="radialGradient3984"
       gradientUnits="userSpaceOnUse"
       gradientTransform="matrix(1.4045838,-0.43663748,0.34629482,1.1139678,-48.80001,34.596683)"
       cx="88.967743"
       cy="36.58506"
       fx="88.967743"
       fy="36.58506"
       r="11.442273" />
    <linearGradient
       inkscape:collect="always"
       xlink:href="#linearGradient3799"
       id="linearGradient3052"
       gradientUnits="userSpaceOnUse"
       gradientTransform="matrix(1.0608329,0,0,1.0007524,-33.962099,-3.8105504)"
       x1="41.845333"
       y1="61.312321"
       x2="31.348053"
       y2="27.575073" />
    <linearGradient
       inkscape:collect="always"
       xlink:href="#linearGradient3799"
       id="linearGradient3055"
       gradientUnits="userSpaceOnUse"
       gradientTransform="matrix(1.0608329,0,0,1.0007524,-5.4018214,-13.518441)"
       x1="41.845333"
       y1="61.312321"
       x2="31.348053"
       y2="27.575073" />
    <clipPath
       clipPathUnits="userSpaceOnUse"
       id="clipPath3067">
      <path
         style="fill:none;stroke:url(#linearGradient3071);stroke-width:1;stroke-linecap:butt;stroke-linejoin:miter;stroke-miterlimit:4;stroke-opacity:1;stroke-dasharray:none"
         d="m 98.411394,54.725297 c 16.501646,-0.34674 8.031596,-22.452591 -4.85471,-13.797667 1.413997,-6.4493 -0.838026,-10.595244 -5.071475,-11.645372 -8.94056,-2.217751 -9.609824,7.397327 -9.609824,7.397327 0,0 -3.039538,-5.55872 -8.261251,-3.503418 -2.476829,0.974897 -4.349625,2.819856 -4.161499,7.951014 -4.750503,-3.115237 -10.184374,0.954939 -9.822683,6.684402 0.383588,6.076347 6.840258,6.89512 8.630973,6.997151 21.444385,1.221867 33.150469,-0.08344 33.150469,-0.08344 z"
         id="path3069"
         inkscape:connector-curvature="0"
         sodipodi:nodetypes="scscscsss" />
    </clipPath>
    <linearGradient
       inkscape:collect="always"
       xlink:href="#linearGradient3799"
       id="linearGradient3071"
       gradientUnits="userSpaceOnUse"
       gradientTransform="matrix(-1,0,0,1,121.50776,-5.3565993)"
       x1="41.845333"
       y1="61.312321"
       x2="31.348053"
       y2="27.575073" />
    <clipPath
       clipPathUnits="userSpaceOnUse"
       id="clipPath3077">
      <path
         style="fill:none;stroke:url(#linearGradient3081);stroke-width:1;stroke-linecap:butt;stroke-linejoin:miter;stroke-miterlimit:4;stroke-opacity:1;stroke-dasharray:none"
         d="m 90.471651,45.616456 c 16.501649,-0.34674 8.031597,-22.45259 -4.85471,-13.797666 1.413998,-6.449301 -0.838025,-10.595244 -5.071474,-11.645372 -8.94056,-2.217752 -9.609825,7.397326 -9.609825,7.397326 0,0 -3.039537,-5.55872 -8.26125,-3.503418 -2.476829,0.974897 -4.349626,2.819856 -4.1615,7.951015 -4.750502,-3.115237 -10.184373,0.954938 -9.822683,6.684401 0.383589,6.076347 6.840259,6.89512 8.630973,6.997152 21.444385,1.221866 33.150469,-0.08344 33.150469,-0.08344 z"
         id="path3079"
         inkscape:connector-curvature="0"
         sodipodi:nodetypes="scscscsss" />
    </clipPath>
    <linearGradient
       inkscape:collect="always"
       xlink:href="#linearGradient3799"
       id="linearGradient3081"
       gradientUnits="userSpaceOnUse"
       gradientTransform="matrix(-1,0,0,1,113.56802,-14.46544)"
       x1="41.845333"
       y1="61.312321"
       x2="31.348053"
       y2="27.575073" />
  </defs>
  <sodipodi:namedview
     id="base"
     pagecolor="#ffffff"
     bordercolor="#666666"
     borderopacity="1.0"
     inkscape:pageopacity="0.0"
     inkscape:pageshadow="2"
     inkscape:zoom="3.8890873"
     inkscape:cx="-41.464701"
     inkscape:cy="29.215815"
     inkscape:current-layer="layer4"
     showgrid="false"
     inkscape:document-units="px"
     inkscape:grid-bbox="true"
     inkscape:window-width="1680"
     inkscape:window-height="1030"
     inkscape:window-x="-2"
     inkscape:window-y="-3"
     inkscape:snap-nodes="true"
     inkscape:window-maximized="1">
    <inkscape:grid
       type="xygrid"
       id="grid3841"
       empspacing="5"
       visible="true"
       enabled="true"
       snapvisiblegridlinesonly="true" />
  </sodipodi:namedview>
  <metadata
     id="metadata23287">
    <rdf:RDF>
      <cc:Work
         rdf:about="">
        <dc:format>image/svg+xml</dc:format>
        <dc:type
           rdf:resource="http://purl.org/dc/dcmitype/StillImage" />
        <dc:title></dc:title>
      </cc:Work>
    </rdf:RDF>
  </metadata>
  <g
     id="layer1"
     inkscape:label="base"
     inkscape:groupmode="layer"
     style="display:none">
    <path
       style="fill:#ffffff;fill-opacity:1;stroke:#86b9ff;stroke-width:0.60000002;stroke-linecap:butt;stroke-linejoin:miter;stroke-miterlimit:0;stroke-opacity:1;stroke-dashoffset:0"
       d="m 32,14.71875 c -0.542077,0 -0.71875,1.46875 -0.71875,1.46875 l 0,0.125 -0.0625,-0.0625 c 0,0 -1.194071,-0.835127 -1.5625,-0.4375 -0.36843,0.397628 0.5625,1.5 0.5625,1.5 l 1.0625,1 0,1.59375 -1.46875,-0.96875 c 0,0 -1.325005,-0.670248 -1.625,-0.21875 C 27.887504,19.170248 29,20.125 29,20.125 l 2.28125,1.53125 0,9.40625 -8.125,-4.71875 -0.1875,-2.71875 c 0,0 -0.271493,-1.440305 -0.8125,-1.40625 -0.541005,0.03405 -0.625,1.5 -0.625,1.5 l 0.09375,1.75 L 20.25,24.6875 19.90625,23.25 c 0,0 -0.471428,-1.339007 -1,-1.21875 C 18.377681,22.151506 18.5,23.59375 18.5,23.59375 l 0,0.09375 -0.09375,-0.0625 c 0,0 -1.353962,-0.594452 -1.625,-0.125 -0.271039,0.469452 0.90625,1.375 0.90625,1.375 l 0.09375,0.0625 -0.0625,0 c 0,0 -1.31639,0.63837 -1.15625,1.15625 0.160141,0.517885 1.5625,0.25 1.5625,0.25 l 1.40625,-0.40625 1.375,0.78125 -1.5625,0.78125 c 0,0 -1.24101,0.826948 -1,1.3125 0.241007,0.485556 1.625,0 1.625,0 L 22.4375,27.59375 30.53125,32.3125 22.4375,37 19.96875,35.78125 c 0,0 -1.383989,-0.485553 -1.625,0 -0.241015,0.485549 1,1.3125 1,1.3125 l 1.5625,0.78125 -1.375,0.78125 L 18.125,38.25 c 0,0 -1.40236,-0.267885 -1.5625,0.25 -0.16014,0.517882 1.15625,1.15625 1.15625,1.15625 l 0.0625,0 -0.09375,0.0625 c 0,0 -1.177288,0.905548 -0.90625,1.375 0.271038,0.469452 1.625,-0.125 1.625,-0.125 L 18.5,40.90625 18.5,41 c 0,0 -0.122317,1.442245 0.40625,1.5625 0.528572,0.120256 1,-1.21875 1,-1.21875 l 0.34375,-1.4375 1.375,-0.78125 -0.09375,1.75 c 0,0 0.08399,1.497195 0.625,1.53125 C 22.697257,42.44031 22.96875,41 22.96875,41 l 0.1875,-2.75 8.125,-4.71875 0,9.40625 L 29,44.46875 c 0,0 -1.112496,0.954752 -0.8125,1.40625 0.29999,0.451499 1.625,-0.21875 1.625,-0.21875 l 1.46875,-0.96875 0,1.59375 -1.0625,1 c 0,0 -0.930931,1.102372 -0.5625,1.5 0.368429,0.397626 1.5625,-0.4375 1.5625,-0.4375 l 0.0625,-0.0625 0,0.125 c 0,0 0.176673,1.46875 0.71875,1.46875 0.542076,0 0.71875,-1.46875 0.71875,-1.46875 l 0,-0.125 0.0625,0.0625 c 0,0 1.194072,0.835125 1.5625,0.4375 0.368431,-0.397629 -0.5625,-1.5 -0.5625,-1.5 l -1.0625,-1 0,-1.59375 1.46875,0.96875 c 0,0 1.325005,0.670247 1.625,0.21875 C 36.1125,45.423504 35,44.46875 35,44.46875 l -2.28125,-1.53125 0,-9.40625 8.125,4.71875 0.1875,2.75 c 0,0 0.271493,1.440305 0.8125,1.40625 0.541005,-0.03405 0.625,-1.53125 0.625,-1.53125 l -0.09375,-1.75 1.375,0.78125 0.34375,1.4375 c 0,0 0.471429,1.339006 1,1.21875 C 45.622319,42.442244 45.5,41 45.5,41 l 0,-0.09375 0.09375,0.0625 c 0,0 1.353961,0.594453 1.625,0.125 0.271038,-0.469452 -0.90625,-1.375 -0.90625,-1.375 l -0.09375,-0.0625 0.0625,0 c 0,0 1.31639,-0.638369 1.15625,-1.15625 -0.160141,-0.517884 -1.5625,-0.25 -1.5625,-0.25 l -1.40625,0.40625 -1.375,-0.78125 1.5625,-0.78125 c 0,0 1.241011,-0.826948 1,-1.3125 -0.241007,-0.485556 -1.625,0 -1.625,0 L 41.5625,37 33.46875,32.3125 41.5625,27.59375 44.03125,28.8125 c 0,0 1.383989,0.485553 1.625,0 0.241011,-0.485552 -1,-1.3125 -1,-1.3125 l -1.5625,-0.78125 1.375,-0.78125 1.40625,0.40625 c 0,0 1.402359,0.267884 1.5625,-0.25 0.16014,-0.517882 -1.15625,-1.15625 -1.15625,-1.15625 l -0.0625,0 0.09375,-0.0625 c 0,0 1.177289,-0.905547 0.90625,-1.375 -0.271038,-0.469452 -1.625,0.125 -1.625,0.125 L 45.5,23.6875 l 0,-0.09375 c 0,0 0.122319,-1.442245 -0.40625,-1.5625 -0.528571,-0.120256 -1,1.21875 -1,1.21875 l -0.34375,1.4375 -1.375,0.78125 0.09375,-1.75 c 0,0 -0.08399,-1.465946 -0.625,-1.5 -0.541007,-0.03406 -0.8125,1.40625 -0.8125,1.40625 l -0.1875,2.71875 -8.125,4.71875 0,-9.40625 L 35,20.125 c 0,0 1.112496,-0.954752 0.8125,-1.40625 -0.299995,-0.451498 -1.625,0.21875 -1.625,0.21875 l -1.46875,0.96875 0,-1.59375 1.0625,-1 c 0,0 0.93093,-1.102372 0.5625,-1.5 -0.368429,-0.397627 -1.5625,0.4375 -1.5625,0.4375 l -0.0625,0.0625 0,-0.125 c 0,0 -0.176672,-1.46875 -0.71875,-1.46875 z"
       id="rect3058"
       inkscape:connector-curvature="0"
       sodipodi:nodetypes="scccsccccscccccsccccscccscccsccccscccccsccccscccscccsccccscccccsccccscccscccsccccscccccsccccscccscccsccccscccccsccccscccscccsccccccccccsccccscccs" />
    <path
       style="fill:#ffffff;fill-opacity:1;stroke:#86b9ff;stroke-width:0.70113087;stroke-linecap:butt;stroke-linejoin:miter;stroke-miterlimit:0;stroke-opacity:1;stroke-dasharray:none;stroke-dashoffset:0;display:inline"
       d="m 32,23.4375 -7.40625,4.28125 0,8.5625 L 32,40.5625 l 7.40625,-4.28125 0,-8.5625 L 32,23.4375 z m 0,2.0625 5.625,3.25 0,6.5 -5.625,3.25 -5.625,-3.25 0,-6.5 L 32,25.5 z"
       id="path3056"
       inkscape:connector-curvature="0" />
    <path
       id="path3934"
       d="m 32,27.553141 -3.846371,2.223429 0,4.44686 L 32,36.446859 l 3.846371,-2.223429 0,-4.44686 L 32,27.553141 z m 0,1.071141 2.921295,1.687859 0,3.375718 L 32,35.375718 l -2.921295,-1.687859 0,-3.375718 L 32,28.624282 z"
       style="fill:#ffffff;fill-opacity:1;stroke:#86b9ff;stroke-width:0.36412618;stroke-linecap:butt;stroke-linejoin:miter;stroke-miterlimit:0;stroke-opacity:1;stroke-dasharray:none;stroke-dashoffset:0;display:inline"
       inkscape:connector-curvature="0" />
  </g>
  <g
     inkscape:groupmode="layer"
     id="layer3"
     inkscape:label="union"
     style="display:none">
    <path
       inkscape:connector-curvature="0"
       id="path4084"
       d="m 32,14.71875 c -0.542077,0 -0.71875,1.46875 -0.71875,1.46875 l 0,0.125 -0.0625,-0.0625 c 0,0 -1.194071,-0.835127 -1.5625,-0.4375 -0.36843,0.397628 0.5625,1.5 0.5625,1.5 l 1.0625,1 0,1.59375 -1.46875,-0.96875 c 0,0 -1.325005,-0.670248 -1.625,-0.21875 C 27.887504,19.170248 29,20.125 29,20.125 l 2.28125,1.53125 0,2.1875 -6.21875,3.59375 -1.90625,-1.09375 -0.1875,-2.71875 c 0,0 -0.271493,-1.440305 -0.8125,-1.40625 -0.541005,0.03405 -0.625,1.5 -0.625,1.5 l 0.09375,1.75 L 20.25,24.6875 19.90625,23.25 c 0,0 -0.471428,-1.339007 -1,-1.21875 C 18.377681,22.151506 18.5,23.59375 18.5,23.59375 l 0,0.09375 -0.09375,-0.0625 c 0,0 -1.353962,-0.594452 -1.625,-0.125 -0.271039,0.469452 0.90625,1.375 0.90625,1.375 l 0.09375,0.0625 -0.0625,0 c 0,0 -1.31639,0.63837 -1.15625,1.15625 0.160141,0.517885 1.5625,0.25 1.5625,0.25 l 1.40625,-0.40625 1.375,0.78125 -1.5625,0.78125 c 0,0 -1.24101,0.826948 -1,1.3125 0.241007,0.485556 1.625,0 1.625,0 l 2.46875,-1.21875 2.15625,1.25 0,6.90625 L 22.4375,37 19.96875,35.78125 c 0,0 -1.383989,-0.485553 -1.625,0 -0.241015,0.485549 1,1.3125 1,1.3125 l 1.5625,0.78125 -1.375,0.78125 L 18.125,38.25 c 0,0 -1.40236,-0.267885 -1.5625,0.25 -0.16014,0.517882 1.15625,1.15625 1.15625,1.15625 l 0.0625,0 -0.09375,0.0625 c 0,0 -1.177288,0.905548 -0.90625,1.375 0.271038,0.469452 1.625,-0.125 1.625,-0.125 L 18.5,40.90625 18.5,41 c 0,0 -0.122317,1.442245 0.40625,1.5625 0.528572,0.120256 1,-1.21875 1,-1.21875 l 0.34375,-1.4375 1.375,-0.78125 -0.09375,1.75 c 0,0 0.08399,1.497195 0.625,1.53125 C 22.697257,42.44031 22.96875,41 22.96875,41 l 0.1875,-2.75 2.40625,-1.40625 5.71875,3.3125 0,2.78125 L 29,44.46875 c 0,0 -1.112496,0.954752 -0.8125,1.40625 0.29999,0.451499 1.625,-0.21875 1.625,-0.21875 l 1.46875,-0.96875 0,1.59375 -1.0625,1 c 0,0 -0.930931,1.102372 -0.5625,1.5 0.368429,0.397626 1.5625,-0.4375 1.5625,-0.4375 l 0.0625,-0.0625 0,0.125 c 0,0 0.176673,1.46875 0.71875,1.46875 0.542076,0 0.71875,-1.46875 0.71875,-1.46875 l 0,-0.125 0.0625,0.0625 c 0,0 1.194072,0.835125 1.5625,0.4375 0.368431,-0.397629 -0.5625,-1.5 -0.5625,-1.5 l -1.0625,-1 0,-1.59375 1.46875,0.96875 c 0,0 1.325005,0.670247 1.625,0.21875 C 36.1125,45.423504 35,44.46875 35,44.46875 l -2.28125,-1.53125 0,-2.78125 5.71875,-3.3125 2.40625,1.40625 0.1875,2.75 c 0,0 0.271493,1.440305 0.8125,1.40625 0.541005,-0.03405 0.625,-1.53125 0.625,-1.53125 l -0.09375,-1.75 1.375,0.78125 0.34375,1.4375 c 0,0 0.471429,1.339006 1,1.21875 C 45.622319,42.442244 45.5,41 45.5,41 l 0,-0.09375 0.09375,0.0625 c 0,0 1.353961,0.594453 1.625,0.125 0.271038,-0.469452 -0.90625,-1.375 -0.90625,-1.375 l -0.09375,-0.0625 0.0625,0 c 0,0 1.31639,-0.638369 1.15625,-1.15625 -0.160141,-0.517884 -1.5625,-0.25 -1.5625,-0.25 l -1.40625,0.40625 -1.375,-0.78125 1.5625,-0.78125 c 0,0 1.241011,-0.826948 1,-1.3125 -0.241007,-0.485556 -1.625,0 -1.625,0 L 41.5625,37 l -2.15625,-1.25 0,-6.90625 2.15625,-1.25 2.46875,1.21875 c 0,0 1.383989,0.485553 1.625,0 0.241011,-0.485552 -1,-1.3125 -1,-1.3125 l -1.5625,-0.78125 1.375,-0.78125 1.40625,0.40625 c 0,0 1.402359,0.267884 1.5625,-0.25 0.16014,-0.517882 -1.15625,-1.15625 -1.15625,-1.15625 l -0.0625,0 0.09375,-0.0625 c 0,0 1.177289,-0.905547 0.90625,-1.375 -0.271038,-0.469452 -1.625,0.125 -1.625,0.125 L 45.5,23.6875 l 0,-0.09375 c 0,0 0.122319,-1.442245 -0.40625,-1.5625 -0.528571,-0.120256 -1,1.21875 -1,1.21875 l -0.34375,1.4375 -1.375,0.78125 0.09375,-1.75 c 0,0 -0.08399,-1.465946 -0.625,-1.5 -0.541007,-0.03406 -0.8125,1.40625 -0.8125,1.40625 l -0.1875,2.71875 -1.90625,1.09375 -6.21875,-3.59375 0,-2.1875 L 35,20.125 c 0,0 1.112496,-0.954752 0.8125,-1.40625 -0.299995,-0.451498 -1.625,0.21875 -1.625,0.21875 l -1.46875,0.96875 0,-1.59375 1.0625,-1 c 0,0 0.93093,-1.102372 0.5625,-1.5 -0.368429,-0.397627 -1.5625,0.4375 -1.5625,0.4375 l -0.0625,0.0625 0,-0.125 c 0,0 -0.176672,-1.46875 -0.71875,-1.46875 z m -0.71875,11.1875 0,2.0625 L 28.625,29.5 l -1.78125,-1.03125 4.4375,-2.5625 z m 1.4375,0 4.4375,2.5625 L 35.375,29.5 l -2.65625,-1.53125 0,-2.0625 z m -1.4375,3.125 0,2.03125 -1.75,-1 1.75,-1.03125 z m 1.4375,0 1.75,1.03125 -1.75,1 0,-2.03125 z M 26.375,29.875 l 1.78125,1.0625 0,2.75 -1.78125,1.03125 0,-4.84375 z m 11.25,0 0,4.84375 -1.78125,-1.03125 0,-2.75 1.78125,-1.0625 z m -8.53125,1.59375 1.4375,0.84375 -1.4375,0.84375 0,-1.6875 z m 5.8125,0 0,1.6875 -1.4375,-0.84375 1.4375,-0.84375 z m -3.625,2.0625 0,1.4375 L 30.0625,34.25 31.28125,33.53125 z m 1.4375,0 1.21875,0.71875 -1.21875,0.71875 0,-1.4375 z m -3.59375,1.25 2.15625,1.25 0,2.0625 -3.9375,-2.28125 1.78125,-1.03125 z m 5.75,0 1.78125,1.03125 -3.9375,2.28125 0,-2.0625 2.15625,-1.25 z"
       style="fill:#ffffff;fill-opacity:1;stroke:#86b9ff;stroke-width:0.60000002;stroke-linecap:butt;stroke-linejoin:miter;stroke-miterlimit:0;stroke-opacity:1;stroke-dashoffset:0;display:inline" />
  </g>
  <g
     inkscape:groupmode="layer"
     id="layer2"
     inkscape:label="refcloud"
     style="display:none">
    <path
       style="fill:url(#radialGradient3978);fill-opacity:1;stroke:none;display:inline"
       d="M 19.099556,46.608661 C 0.75839412,46.325942 12.209276,23.205352 24.589832,33.221516 22.57745,27.281622 25.124778,22.151703 29.772403,21.179012 c 9.459876,-1.979837 10.051594,7.370359 10.051594,7.370359 0,0 3.224441,-5.562902 8.763806,-3.506054 2.627502,0.975631 4.614226,2.821978 4.414656,7.956997 5.039489,-3.117581 10.46169,0.866734 10.613072,6.046607 0.190413,6.515403 -7.449218,7.543132 -9.348867,7.64524 -22.748909,1.222786 -35.167108,-0.0835 -35.167108,-0.0835 z"
       id="path3194"
       inkscape:connector-curvature="0"
       sodipodi:nodetypes="scscscsss" />
    <path
       sodipodi:type="arc"
       style="fill:url(#radialGradient3984);fill-opacity:1;stroke:none;display:inline"
       id="path3926"
       sodipodi:cx="87.93837"
       sodipodi:cy="35.394318"
       sodipodi:rx="25.584408"
       sodipodi:ry="13.820724"
       d="m 113.52278,35.394318 a 25.584408,13.820724 0 1 1 -51.168818,0 25.584408,13.820724 0 1 1 51.168818,0 z"
       transform="matrix(-1.0608329,0,0,1.0007524,115.07486,0.9578828)"
       clip-path="url(#clipPath3077)" />
    <path
       transform="matrix(-1.0608329,0,0,1.0007524,123.4976,-8.1578114)"
       d="m 107.25005,35.394318 a 19.31168,16.002542 0 1 1 -38.62336,0 19.31168,16.002542 0 1 1 38.62336,0 z"
       sodipodi:ry="16.002542"
       sodipodi:rx="19.31168"
       sodipodi:cy="35.394318"
       sodipodi:cx="87.93837"
       id="path3954"
       style="fill:url(#radialGradient3982);fill-opacity:1;stroke:none;display:inline"
       sodipodi:type="arc"
       clip-path="url(#clipPath3067)" />
    <path
       sodipodi:nodetypes="scscscsss"
       inkscape:connector-curvature="0"
       id="path3029"
       d="M 19.099556,46.608661 C 1.5940658,46.26166 10.579374,24.139177 24.249592,32.800613 22.749577,26.34646 25.138597,22.197397 29.629579,21.146479 c 9.48444,-2.21942 10.194418,7.402892 10.194418,7.402892 0,0 3.224441,-5.562902 8.763806,-3.506054 2.627502,0.975631 4.614226,2.821978 4.414656,7.956997 5.039489,-3.117581 10.803918,0.955657 10.420225,6.689431 -0.406923,6.080919 -7.256371,6.900308 -9.15602,7.002416 -22.748909,1.222786 -35.167108,-0.0835 -35.167108,-0.0835 z"
       style="fill:none;stroke:url(#linearGradient3187);stroke-width:1.03035486;stroke-linecap:butt;stroke-linejoin:miter;stroke-miterlimit:4;stroke-opacity:1;stroke-dasharray:none;display:inline" />
  </g>
  <g
     inkscape:groupmode="layer"
     id="layer4"
     inkscape:label="final"
     style="display:inline">
    <path
       style="fill:#ffffff;fill-opacity:1;stroke:#2a84ff;stroke-width:0.39546797000000000;stroke-linecap:butt;stroke-linejoin:miter;stroke-miterlimit:0;stroke-opacity:1;stroke-dasharray:none;stroke-dashoffset:0;display:inline"
       d="m 32.000005,23.310521 c -0.267968,0 -0.355304,0.726054 -0.355304,0.726054 l 0,0.06179 -0.0309,-0.0309 c 0,0 -0.590271,-0.412832 -0.772399,-0.216271 -0.182127,0.196561 0.278064,0.741502 0.278064,0.741502 l 0.52523,0.494335 0,0.787847 -0.726053,-0.478888 c 0,0 -0.654997,-0.331327 -0.803295,-0.108136 -0.148298,0.223191 0.401648,0.695159 0.401648,0.695159 l 1.1277,0.75695 0,1.081358 -3.074144,1.776517 -0.942327,-0.54068 -0.09269,-1.343973 c 0,0 -0.134208,-0.711992 -0.401647,-0.695158 -0.267437,0.01683 -0.308959,0.741502 -0.308959,0.741502 l 0.04634,0.865086 -0.679711,-0.386199 -0.169927,-0.710606 c 0,0 -0.233044,-0.661918 -0.494335,-0.602471 -0.26129,0.05945 -0.200824,0.772399 -0.200824,0.772399 l 0,0.04634 -0.04635,-0.0309 c 0,0 -0.669311,-0.293859 -0.803294,-0.06179 -0.133984,0.232066 0.447991,0.67971 0.447991,0.67971 l 0.04634,0.0309 -0.0309,0 c 0,0 -0.650737,0.315569 -0.571574,0.571575 0.07917,0.256008 0.772398,0.123583 0.772398,0.123583 l 0.695158,-0.200823 0.679711,0.386199 -0.772398,0.386199 c 0,0 -0.613475,0.408789 -0.494335,0.648815 0.119138,0.240027 0.803294,0 0.803294,0 l 1.220389,-0.602471 1.06591,0.617919 0,3.414001 -1.06591,0.617919 -1.220389,-0.602471 c 0,0 -0.684154,-0.240027 -0.803294,0 -0.119143,0.240023 0.494335,0.648814 0.494335,0.648814 l 0.772398,0.386199 -0.679711,0.3862 -0.695158,-0.200824 c 0,0 -0.693236,-0.132425 -0.772398,0.123583 -0.07917,0.256008 0.571574,0.571576 0.571574,0.571576 l 0.0309,0 -0.04634,0.0309 c 0,0 -0.581975,0.447644 -0.447991,0.67971 0.133983,0.232067 0.803294,-0.06179 0.803294,-0.06179 l 0.04635,-0.0309 0,0.04635 c 0,0 -0.06046,0.712952 0.200824,0.772398 0.261291,0.05945 0.494335,-0.602471 0.494335,-0.602471 l 0.169927,-0.710606 0.679711,-0.386199 -0.04634,0.865086 c 0,0 0.04151,0.740116 0.308959,0.75695 0.267439,0.01684 0.401647,-0.695158 0.401647,-0.695158 l 0.09269,-1.359422 1.189493,-0.695158 2.826978,1.637485 0,1.374868 -1.1277,0.756951 c 0,0 -0.549946,0.471967 -0.401648,0.695159 0.148295,0.223191 0.803295,-0.108136 0.803295,-0.108136 l 0.726053,-0.478887 0,0.787846 -0.52523,0.494335 c 0,0 -0.460192,0.544941 -0.278064,0.741503 0.182128,0.19656 0.772399,-0.216272 0.772399,-0.216272 l 0.0309,-0.0309 0,0.06179 c 0,0 0.08734,0.726055 0.355304,0.726055 0.267967,0 0.355303,-0.726055 0.355303,-0.726055 l 0,-0.06179 0.0309,0.0309 c 0,0 0.590272,0.412832 0.772399,0.216272 0.182128,-0.196562 -0.278063,-0.741503 -0.278063,-0.741503 l -0.525231,-0.494335 0,-0.787846 0.726055,0.478887 c 0,0 0.654996,0.331326 0.803294,0.108136 0.1483,-0.223191 -0.401647,-0.695159 -0.401647,-0.695159 l -1.127702,-0.756951 0,-1.374868 2.826978,-1.637485 1.189493,0.695158 0.09269,1.359422 c 0,0 0.134209,0.711993 0.401647,0.695158 0.267438,-0.01683 0.30896,-0.75695 0.30896,-0.75695 l -0.04635,-0.865086 0.679711,0.386199 0.169928,0.710606 c 0,0 0.233044,0.661918 0.494335,0.602471 0.26129,-0.05945 0.200823,-0.772398 0.200823,-0.772398 l 0,-0.04635 0.04635,0.0309 c 0,0 0.66931,0.293858 0.803294,0.06179 0.133983,-0.232066 -0.447992,-0.67971 -0.447992,-0.67971 l -0.04634,-0.0309 0.0309,0 c 0,0 0.650738,-0.315568 0.571575,-0.571576 -0.07917,-0.256008 -0.772398,-0.123583 -0.772398,-0.123583 l -0.695159,0.200824 -0.67971,-0.3862 0.772398,-0.386199 c 0,0 0.613475,-0.408789 0.494335,-0.648814 -0.119139,-0.240028 -0.803294,0 -0.803294,0 l -1.22039,0.602471 -1.065909,-0.617919 0,-3.414001 1.065909,-0.617919 1.22039,0.602471 c 0,0 0.684154,0.240025 0.803294,0 0.11914,-0.240026 -0.494335,-0.648815 -0.494335,-0.648815 l -0.772398,-0.386199 0.67971,-0.386199 0.695159,0.200823 c 0,0 0.693235,0.132424 0.772398,-0.123583 0.07917,-0.256007 -0.571575,-0.571575 -0.571575,-0.571575 l -0.0309,0 0.04634,-0.0309 c 0,0 0.581976,-0.447643 0.447992,-0.67971 -0.133984,-0.232067 -0.803294,0.06179 -0.803294,0.06179 l -0.04635,0.0309 0,-0.04634 c 0,0 0.06047,-0.712953 -0.200823,-0.772399 -0.261291,-0.05945 -0.494335,0.602471 -0.494335,0.602471 l -0.169928,0.710606 -0.679711,0.386199 0.04635,-0.865086 c 0,0 -0.04151,-0.724668 -0.30896,-0.741502 -0.267438,-0.01684 -0.401647,0.695158 -0.401647,0.695158 l -0.09269,1.343973 -0.942326,0.54068 -3.074145,-1.776517 0,-1.081358 1.127702,-0.75695 c 0,0 0.549945,-0.471968 0.401647,-0.695159 -0.148298,-0.223191 -0.803294,0.108136 -0.803294,0.108136 l -0.726055,0.478888 0,-0.787847 0.525231,-0.494335 c 0,0 0.460191,-0.544941 0.278063,-0.741502 -0.182128,-0.196561 -0.772399,0.216271 -0.772399,0.216271 l -0.0309,0.0309 0,-0.06179 c 0,0 -0.08734,-0.726054 -0.355303,-0.726054 z m -0.355304,5.530373 0,1.019566 -1.313077,0.75695 -0.880534,-0.509783 2.193611,-1.266733 z m 0.710607,0 2.193611,1.266733 -0.880534,0.509783 -1.313077,-0.75695 0,-1.019566 z m -0.710607,1.544796 0,1.004118 -0.865085,-0.494335 0.865085,-0.509783 z m 0.710607,0 0.865086,0.509783 -0.865086,0.494335 0,-1.004118 z m -3.135937,0.417095 0.880533,0.525231 0,1.359422 -0.880533,0.509783 0,-2.394436 z m 5.561268,0 0,2.394436 -0.880534,-0.509783 0,-1.359422 0.880534,-0.525231 z m -4.217295,0.787847 0.710607,0.417094 -0.710607,0.417096 0,-0.83419 z m 2.873321,0 0,0.83419 -0.710606,-0.417096 0.710606,-0.417094 z m -1.791964,1.019565 0,0.710608 -0.60247,-0.355303 0.60247,-0.355304 z m 0.710607,0 0.602471,0.355304 -0.602471,0.355303 0,-0.710607 z m -1.776516,0.617919 1.065909,0.617919 0,1.019566 -1.946444,-1.127702 0.880535,-0.509783 z m 2.842426,0 0.880534,0.509783 -1.946444,1.127702 0,-1.019566 1.06591,-0.617919 z"
       id="path3947"
       inkscape:connector-curvature="0" />
  </g>
</svg>
