<?xml version="1.0" encoding="UTF-8" standalone="no"?>
<!-- Created with Inkscape (http://www.inkscape.org/) -->

<svg
   xmlns:dc="http://purl.org/dc/elements/1.1/"
   xmlns:cc="http://creativecommons.org/ns#"
   xmlns:rdf="http://www.w3.org/1999/02/22-rdf-syntax-ns#"
   xmlns:svg="http://www.w3.org/2000/svg"
   xmlns="http://www.w3.org/2000/svg"
   xmlns:xlink="http://www.w3.org/1999/xlink"
   xmlns:sodipodi="http://sodipodi.sourceforge.net/DTD/sodipodi-0.dtd"
   xmlns:inkscape="http://www.inkscape.org/namespaces/inkscape"
   width="64px"
   height="64px"
   id="svg23282"
   sodipodi:version="0.32"
   inkscape:version="0.48.4 r9939"
   sodipodi:docname="ic_weather_moon.svg"
   inkscape:output_extension="org.inkscape.output.svg.inkscape"
   version="1.1"
   inkscape:export-filename="/home/lukas/development/Android/CHMUpocasiProject/CHMUpocasi/src/main/res/drawable-hdpi/ic_weather_moon.png"
   inkscape:export-xdpi="101.25"
   inkscape:export-ydpi="101.25">
  <defs
     id="defs23284">
    <linearGradient
       id="linearGradient4149">
      <stop
         id="stop4151"
         offset="0"
         style="stop-color:#a0a0a0;stop-opacity:1;" />
      <stop
         id="stop4155"
         offset="0.6730594"
         style="stop-color:#838383;stop-opacity:0;" />
      <stop
         id="stop4157"
         offset="1"
         style="stop-color:#5a5a5a;stop-opacity:0;" />
    </linearGradient>
    <linearGradient
       id="linearGradient3921">
      <stop
         style="stop-color:#6e6e6e;stop-opacity:1;"
         offset="0"
         id="stop3923" />
      <stop
         id="stop4129"
         offset="0.05602047"
         style="stop-color:#6e6e6e;stop-opacity:1;" />
      <stop
         id="stop3939"
         offset="0.12554274"
         style="stop-color:#5b5b5b;stop-opacity:1;" />
      <stop
         id="stop3937"
         offset="0.45715064"
         style="stop-color:#323232;stop-opacity:1;" />
      <stop
         style="stop-color:#2d2d2d;stop-opacity:1;"
         offset="1"
         id="stop3925" />
    </linearGradient>
    <linearGradient
       id="linearGradient3897">
      <stop
         style="stop-color:#a0a0a0;stop-opacity:1;"
         offset="0"
         id="stop3899" />
      <stop
         id="stop4119"
         offset="0.09427196"
         style="stop-color:#acacac;stop-opacity:1;" />
      <stop
         style="stop-color:#838383;stop-opacity:0;"
         offset="0.45968556"
         id="stop4133" />
      <stop
         style="stop-color:#5a5a5a;stop-opacity:0;"
         offset="1"
         id="stop3901" />
    </linearGradient>
    <linearGradient
       id="linearGradient3799">
      <stop
         style="stop-color:#666f77;stop-opacity:1;"
         offset="0"
         id="stop3801" />
      <stop
         id="stop3811"
         offset="0.46500358"
         style="stop-color:#6e757c;stop-opacity:1;" />
      <stop
         id="stop3809"
         offset="0.58343458"
         style="stop-color:#a8adb2;stop-opacity:1;" />
      <stop
         style="stop-color:#eaeced;stop-opacity:1;"
         offset="1"
         id="stop3803" />
    </linearGradient>
    <linearGradient
       id="linearGradient3914">
      <stop
         id="stop3916"
         offset="0"
         style="stop-color:#ffffff;stop-opacity:0.80833334;" />
      <stop
         style="stop-color:#ffffff;stop-opacity:0.48333332;"
         offset="0.53998131"
         id="stop3918" />
      <stop
         id="stop3920"
         offset="1"
         style="stop-color:#ffffff;stop-opacity:0;" />
    </linearGradient>
    <linearGradient
       id="linearGradient3886">
      <stop
         style="stop-color:#ff9b16;stop-opacity:0.60833335;"
         offset="0"
         id="stop3888" />
      <stop
         id="stop3894"
         offset="0.76923078"
         style="stop-color:#ff9b16;stop-opacity:0.61666667;" />
      <stop
         style="stop-color:#ff9b16;stop-opacity:0;"
         offset="1"
         id="stop3890" />
    </linearGradient>
    <linearGradient
       id="linearGradient3839">
      <stop
         style="stop-color:#ffff52;stop-opacity:1;"
         offset="0"
         id="stop3841" />
      <stop
         id="stop3847"
         offset="0.81538463"
         style="stop-color:#ffff52;stop-opacity:1;" />
      <stop
         style="stop-color:#ffff52;stop-opacity:0;"
         offset="1"
         id="stop3843" />
    </linearGradient>
    <linearGradient
       id="linearGradient3768">
      <stop
         style="stop-color:#3a4a5b;stop-opacity:1;"
         offset="0"
         id="stop3770" />
      <stop
         id="stop3786"
         offset="0.81517267"
         style="stop-color:#b1bfcd;stop-opacity:1;" />
      <stop
         style="stop-color:#d8dfe6;stop-opacity:1;"
         offset="1"
         id="stop3772" />
    </linearGradient>
    <inkscape:path-effect
       effect="spiro"
       id="path-effect3771"
       is_visible="true" />
    <inkscape:path-effect
       effect="spiro"
       id="path-effect3767"
       is_visible="true" />
    <inkscape:path-effect
       effect="spiro"
       id="path-effect2995"
       is_visible="true" />
    <linearGradient
       id="linearGradient28545">
      <stop
         style="stop-color:#ffffff;stop-opacity:1;"
         offset="0"
         id="stop28547" />
      <stop
         style="stop-color:#ffffff;stop-opacity:0;"
         offset="1"
         id="stop28549" />
    </linearGradient>
    <radialGradient
       inkscape:collect="always"
       xlink:href="#linearGradient3768"
       id="radialGradient3788"
       cx="37.884304"
       cy="59.953907"
       fx="37.884304"
       fy="59.953907"
       r="21.934855"
       gradientTransform="matrix(1.9485805,0.00456696,-0.00317627,1.3552123,-36.553711,-20.820919)"
       gradientUnits="userSpaceOnUse" />
    <radialGradient
       inkscape:collect="always"
       xlink:href="#linearGradient3839"
       id="radialGradient3845"
       cx="-31.369827"
       cy="35.201469"
       fx="-31.369827"
       fy="35.201469"
       r="7.0341887"
       gradientUnits="userSpaceOnUse"
       gradientTransform="matrix(0.80558293,0,0,0.81962894,-6.0988309,6.3493275)" />
    <radialGradient
       inkscape:collect="always"
       xlink:href="#linearGradient3839-7"
       id="radialGradient3845-5"
       cx="-31.369827"
       cy="35.201469"
       fx="-31.369827"
       fy="35.201469"
       r="7.0341887"
       gradientUnits="userSpaceOnUse" />
    <linearGradient
       id="linearGradient3839-7">
      <stop
         style="stop-color:#ffff52;stop-opacity:1;"
         offset="0"
         id="stop3841-4" />
      <stop
         id="stop3847-8"
         offset="0.81538463"
         style="stop-color:#ffff52;stop-opacity:1;" />
      <stop
         style="stop-color:#ffff52;stop-opacity:0;"
         offset="1"
         id="stop3843-5" />
    </linearGradient>
    <radialGradient
       inkscape:collect="always"
       xlink:href="#linearGradient3886"
       id="radialGradient3892"
       cx="-31.369827"
       cy="35.201469"
       fx="-31.369827"
       fy="35.201469"
       r="7.283123"
       gradientUnits="userSpaceOnUse"
       gradientTransform="matrix(1.0213129,0,0,1.0879644,0.66858671,-3.0964722)" />
    <radialGradient
       inkscape:collect="always"
       xlink:href="#linearGradient3914"
       id="radialGradient3934"
       cx="88.967743"
       cy="36.58506"
       fx="88.967743"
       fy="36.58506"
       r="11.442273"
       gradientTransform="matrix(1.4045838,-0.43663748,0.34629482,1.1139678,-48.80001,34.596683)"
       gradientUnits="userSpaceOnUse" />
    <radialGradient
       inkscape:collect="always"
       xlink:href="#linearGradient3914"
       id="radialGradient3958"
       gradientUnits="userSpaceOnUse"
       gradientTransform="matrix(1.1344535,-0.64320811,0.57536272,1.0147917,-33.420117,56.534082)"
       cx="89.291534"
       cy="35.156277"
       fx="89.291534"
       fy="35.156277"
       r="11.442273" />
    <linearGradient
       inkscape:collect="always"
       xlink:href="#linearGradient3799"
       id="linearGradient3805"
       x1="41.845333"
       y1="61.312321"
       x2="31.348053"
       y2="27.575073"
       gradientUnits="userSpaceOnUse" />
    <radialGradient
       inkscape:collect="always"
       xlink:href="#linearGradient3886"
       id="radialGradient3047"
       gradientUnits="userSpaceOnUse"
       gradientTransform="matrix(1.0213129,0,0,1.0879644,0.66858671,-3.0964722)"
       cx="-31.369827"
       cy="35.201469"
       fx="-31.369827"
       fy="35.201469"
       r="7.283123" />
    <radialGradient
       inkscape:collect="always"
       xlink:href="#linearGradient3839"
       id="radialGradient3049"
       gradientUnits="userSpaceOnUse"
       gradientTransform="matrix(0.80558293,0,0,0.81962894,-6.0988309,6.3493275)"
       cx="-31.369827"
       cy="35.201469"
       fx="-31.369827"
       fy="35.201469"
       r="7.0341887" />
    <clipPath
       clipPathUnits="userSpaceOnUse"
       id="clipPath3868">
      <path
         style="fill:none;stroke:url(#linearGradient3872);stroke-width:1;stroke-linecap:butt;stroke-linejoin:miter;stroke-miterlimit:4;stroke-opacity:1;stroke-dasharray:none"
         d="m 100.65345,52.798274 c 17.2894,-0.282506 9.6677,-24.443847 -5.218284,-16.238563 3.556567,-2.95104 2.542485,-8.212493 1.227759,-10.292791 -3.08383,-4.87956 -13.699719,-7.113756 -18.176086,0.06057 -4.034399,6.465978 0.752124,10.223627 0.752124,10.223627 0,0 -3.709573,-4.658507 -11.816788,-2.23275 -6.27382,1.877188 -6.830071,8.055199 -6.611085,10.988086 0.393865,5.275062 4.90118,7.473227 6.691895,7.575259 21.444385,1.221866 33.150465,-0.08344 33.150465,-0.08344 z"
         id="path3870"
         inkscape:connector-curvature="0"
         sodipodi:nodetypes="scsscssss" />
    </clipPath>
    <linearGradient
       inkscape:collect="always"
       xlink:href="#linearGradient3799"
       id="linearGradient3872"
       gradientUnits="userSpaceOnUse"
       x1="41.845333"
       y1="61.312321"
       x2="31.348053"
       y2="27.575073"
       gradientTransform="matrix(-1,0,0,1,123.74982,-7.2836224)" />
    <clipPath
       clipPathUnits="userSpaceOnUse"
       id="clipPath3874">
      <path
         style="fill:none;stroke:url(#linearGradient3878);stroke-width:1;stroke-linecap:butt;stroke-linejoin:miter;stroke-miterlimit:4;stroke-opacity:1;stroke-dasharray:none"
         d="m 90.471644,45.616456 c 17.289396,-0.282506 9.667696,-24.443847 -5.218288,-16.238563 3.556567,-2.95104 2.542485,-8.212493 1.227759,-10.292791 -3.08383,-4.87956 -13.699719,-7.113756 -18.176086,0.06057 -4.034399,6.465978 0.752124,10.223627 0.752124,10.223627 0,0 -3.709573,-4.658507 -11.816788,-2.23275 -6.27382,1.877188 -6.830071,8.055199 -6.611085,10.988086 0.393865,5.275062 4.90118,7.473227 6.691895,7.575259 21.444385,1.221866 33.150469,-0.08344 33.150469,-0.08344 z"
         id="path3876"
         inkscape:connector-curvature="0"
         sodipodi:nodetypes="scsscssss" />
    </clipPath>
    <linearGradient
       inkscape:collect="always"
       xlink:href="#linearGradient3799"
       id="linearGradient3878"
       gradientUnits="userSpaceOnUse"
       x1="41.845333"
       y1="61.312321"
       x2="31.348053"
       y2="27.575073"
       gradientTransform="matrix(-1,0,0,1,113.56801,-14.46544)" />
    <radialGradient
       inkscape:collect="always"
       xlink:href="#linearGradient3897"
       id="radialGradient3903"
       cx="17.578119"
       cy="33.864857"
       fx="17.578119"
       fy="33.864857"
       r="20.636364"
       gradientUnits="userSpaceOnUse"
       gradientTransform="matrix(1.735821,0.37338454,-0.21205785,0.98583223,-5.4532612,-5.9355449)" />
    <radialGradient
       inkscape:collect="always"
       xlink:href="#linearGradient3921"
       id="radialGradient3935"
       cx="10.346692"
       cy="15.623808"
       fx="10.346692"
       fy="15.623808"
       r="12.081309"
       gradientTransform="matrix(1.2332679,0.26336699,-0.22765002,1.066016,7.9571484,-3.7563986)"
       gradientUnits="userSpaceOnUse" />
    <filter
       inkscape:collect="always"
       id="filter3979">
      <feGaussianBlur
         inkscape:collect="always"
         stdDeviation="0.24250572"
         id="feGaussianBlur3981" />
    </filter>
    <filter
       inkscape:collect="always"
       id="filter4015"
       x="-0.20449972"
       width="1.4089994"
       y="-0.16074253"
       height="1.3214851">
      <feGaussianBlur
         inkscape:collect="always"
         stdDeviation="0.26042674"
         id="feGaussianBlur4017" />
    </filter>
    <filter
       inkscape:collect="always"
       id="filter4055"
       x="-0.16885232"
       width="1.3377046"
       y="-0.09307233"
       height="1.1861447">
      <feGaussianBlur
         inkscape:collect="always"
         stdDeviation="0.30559519"
         id="feGaussianBlur4057" />
    </filter>
    <filter
       inkscape:collect="always"
       id="filter4083"
       x="-0.18340737"
       width="1.3668147"
       y="-0.089171677"
       height="1.1783434">
      <feGaussianBlur
         inkscape:collect="always"
         stdDeviation="0.15905053"
         id="feGaussianBlur4085" />
    </filter>
    <filter
       inkscape:collect="always"
       id="filter4103">
      <feGaussianBlur
         inkscape:collect="always"
         stdDeviation="0.32844329"
         id="feGaussianBlur4105" />
    </filter>
    <filter
       inkscape:collect="always"
       id="filter4115"
       x="-0.10311963"
       width="1.2062393"
       y="-0.11336527"
       height="1.2267305">
      <feGaussianBlur
         inkscape:collect="always"
         stdDeviation="0.34379532"
         id="feGaussianBlur4117" />
    </filter>
    <radialGradient
       inkscape:collect="always"
       xlink:href="#linearGradient4149"
       id="radialGradient4137"
       gradientUnits="userSpaceOnUse"
       gradientTransform="matrix(0.22639108,-1.7811345,1.4627214,0.18591915,-12.548715,57.873454)"
       cx="21.012325"
       cy="23.174448"
       fx="21.012325"
       fy="23.174448"
       r="20.636364" />
  </defs>
  <sodipodi:namedview
     id="base"
     pagecolor="#ffffff"
     bordercolor="#666666"
     borderopacity="1.0"
     inkscape:pageopacity="0.0"
     inkscape:pageshadow="2"
     inkscape:zoom="7.7781748"
     inkscape:cx="17.141631"
     inkscape:cy="31.152877"
     inkscape:current-layer="layer1"
     showgrid="false"
     inkscape:document-units="px"
     inkscape:grid-bbox="true"
     inkscape:window-width="1680"
     inkscape:window-height="1030"
     inkscape:window-x="-2"
     inkscape:window-y="-3"
     inkscape:snap-nodes="true"
     inkscape:window-maximized="1" />
  <metadata
     id="metadata23287">
    <rdf:RDF>
      <cc:Work
         rdf:about="">
        <dc:format>image/svg+xml</dc:format>
        <dc:type
           rdf:resource="http://purl.org/dc/dcmitype/StillImage" />
        <dc:title />
      </cc:Work>
    </rdf:RDF>
  </metadata>
  <g
     id="layer1"
     inkscape:label="Layer"
     inkscape:groupmode="layer"
     style="display:inline">
    <path
       sodipodi:type="arc"
       style="fill:#5a5a5a;fill-opacity:1;stroke:#000000;stroke-opacity:1"
       id="path3125"
       sodipodi:cx="22"
       sodipodi:cy="23"
       sodipodi:rx="20.636364"
       sodipodi:ry="20.636364"
       d="M 42.636364,23 A 20.636364,20.636364 0 1 1 1.363636,23 20.636364,20.636364 0 1 1 42.636364,23 z"
       transform="translate(0.81393827,-0.18181818)" />
    <path
       transform="translate(0.81393827,-0.18181818)"
       sodipodi:type="arc"
       style="fill:url(#radialGradient4137);fill-opacity:1;stroke:none"
       id="path4135"
       sodipodi:cx="22"
       sodipodi:cy="23"
       sodipodi:rx="20.636364"
       sodipodi:ry="20.636364"
       d="M 42.636364,23 A 20.636364,20.636364 0 1 1 1.363636,23 20.636364,20.636364 0 1 1 42.636364,23 z" />
    <path
       d="M 42.636364,23 A 20.636364,20.636364 0 1 1 1.363636,23 20.636364,20.636364 0 1 1 42.636364,23 z"
       sodipodi:ry="20.636364"
       sodipodi:rx="20.636364"
       sodipodi:cy="23"
       sodipodi:cx="22"
       id="path3895"
       style="fill:url(#radialGradient3903);fill-opacity:1;stroke:none"
       sodipodi:type="arc"
       transform="translate(0.81393827,-0.18181818)" />
    <path
       style="fill:#3c3c3c;fill-opacity:1;stroke:none;filter:url(#filter4103)"
       d="m 29.723028,12.272727 c -0.693153,1.386306 -1.451418,2.7304 0.09091,4.272728 0.239022,0.239022 0.624185,0.260549 0.818181,0.454545 0.249133,0.249133 2.090909,0.417341 2.090909,0.818182 0,0.202958 -1.008017,1.008017 -1.090909,1.090909 -0.154534,0.154534 -1.236763,2.854146 -0.727272,3.363636 0.280687,0.280687 0.46153,0.916076 0.727272,1.181818 0.414478,0.414478 1.332672,0.392616 1.636364,1 0.293972,0.587944 -0.838046,1.707409 -0.181818,2.363637 0.481288,0.481288 1.531963,-2.350146 1.636363,-2.454546 1.525146,-1.525145 1.494321,1.323862 2.727273,0.09091 0.335968,-0.335967 0.204438,-1.295347 0.545455,-1.636363 0.411031,-0.411032 0.943235,-0.5796 1.272727,-0.909092 0.184616,-0.184616 -0.580578,-0.671487 -0.636364,-0.727273 C 38.328907,20.878606 38.26917,20.273414 37.995756,20 37.884471,19.888715 38.3624,18.003008 37.813937,17.454545 c -0.572149,-0.572149 -0.876005,2.033086 -2.272727,0.636364 -0.633963,-0.633963 0.298947,-2.506984 0.545455,-3 0.553077,-1.106154 -1.277882,-2.914245 -1.818182,-3.454545 C 33.87803,11.245911 32.955944,11.323825 32.632119,11 c -1.43495,-0.147674 -2.468428,0.671464 -2.909091,1.272727 z"
       id="path3905"
       inkscape:connector-curvature="0"
       sodipodi:nodetypes="csssssssssssssssssscc" />
    <path
       style="fill:#3c3c3c;fill-opacity:1;stroke:none;filter:url(#filter4055)"
       d="m 37.086665,27.909091 c 0.09875,0.0113 -0.166569,1.575953 0.181818,2.272727 1.101697,2.203394 1.969077,-1.69635 2.545454,-2.272727 0.22287,-0.22287 1.855361,-1.690094 1.545455,-2 -0.1911,-0.1911 -0.747027,-0.221328 -0.909091,-0.545455 -0.3788,-0.757599 -0.316812,-1.680448 -0.909091,-2.272727 -0.523097,-0.523097 -0.538879,0.811607 -0.727273,1 -0.557402,0.557403 -1.273779,1.093015 -1.636363,1.818182 -0.205594,0.411187 -0.09091,1.542925 -0.09091,2 z"
       id="path3907"
       inkscape:connector-curvature="0" />
    <path
       style="fill:#2d2d2d;fill-opacity:1;stroke:none;filter:url(#filter4083)"
       d="m 40.54121,19 c -0.115795,0.422313 -0.181818,0.92761 -0.181818,1.727273 0,0.394868 0.09091,0.668118 0.09091,0.909091 0,0.398783 0.359684,0.719368 0.545455,1.090909 C 41.895177,24.526116 43.962444,17.289383 40.54121,19 z"
       id="path3911"
       inkscape:connector-curvature="0"
       sodipodi:nodetypes="csssc" />
    <path
       style="fill:url(#radialGradient3935);fill-opacity:1;stroke:none;filter:url(#filter3979)"
       d="m 6.8139386,9.9090909 c -0.2658761,0.2828251 -0.6483941,1.7513331 -1.181819,2.8181821 -0.230128,0.460257 0.3551039,1.446012 0.5454549,1.636363 0.03046,0.03046 -0.9592679,5.586187 0.454545,7 0.528304,0.528304 1.4435821,-0.829145 1.7272731,-0.545454 0.350766,0.350766 1.067775,2.114043 2.0000004,1.181818 0.01692,-0.01692 0.295249,-0.454545 0.363636,-0.454545 0.03901,0 1.008036,1.46258 1.09091,1.545454 0.232908,0.232909 -0.588005,1.363636 -0.818182,1.363636 -3.2438015,0 -2.2917394,2.344626 -0.909091,3.727273 0.426826,0.426827 2.751356,-0.502712 2.818182,-0.636363 0.243258,-0.486517 -2.012632,-2.084593 -0.363637,-2.909091 0.210922,-0.105461 0.839693,0.160307 1,0 0.244473,-0.244473 0.499922,-0.704507 0.909091,-0.909091 1.265882,-0.632941 2.999999,1.486366 2.999999,-1.909091 0,-0.188332 0.119851,-1.061967 0,-1.181818 -0.153508,-0.153508 -0.589483,0.09091 -0.90909,0.09091 -0.195733,0 0.07791,-0.896095 0.636363,-1.454546 0.387737,-0.387737 1.337992,1.441724 1.727273,1.636364 C 19.974965,21.44415 21.227392,20 22.177574,20 c 0.909695,0 1.535405,0.899042 2,1.363636 0.513407,0.513408 0.946889,-0.674162 1.090909,-0.818181 0.425545,-0.425545 -1.679438,-2.320563 -0.636364,-3.363637 0.272363,-0.272362 0.79289,0.792889 0.909091,0.909091 1.225773,1.225773 2.095184,1.900541 3.181818,-0.272727 0.09361,-0.18722 -0.186254,-0.6408 -0.272727,-0.727273 C 28.140091,16.780699 28.064528,16.250591 27.813938,16 c -0.844216,-0.844215 -3.031756,0.05915 -3.818182,-0.727273 -0.49925,-0.49925 1.272727,-0.926281 1.272727,-1.181818 0,-1.139706 -1.373095,-2.253809 -1.272727,-2.454545 0.343075,-0.686151 1.37975,-0.379751 1.818182,-0.818182 0.514425,-0.514425 0.549006,-1.7308252 1.090909,-2.2727274 0.108332,-0.108332 1.266325,-0.551856 0.909091,-0.9090909 C 27.397834,7.2202604 27.072705,6.6224041 26.632119,6.1818182 25.378355,4.9280538 22.767095,4.7741149 21.450301,6.0909091 c -0.071,0.070999 -0.155492,-0.4282199 -0.181818,-0.4545454 -0.08265,-0.08265 -0.895116,-0.5594296 -1.090909,-0.3636364 -0.593,0.593 -1.729936,1.0026633 -2.454546,1.7272727 -0.125024,0.1250242 -0.744829,0.8915347 -0.90909,0.7272728 -0.137081,-0.1370812 -1.27987,-1.174675 -0.818181,-1.6363637 0.67181,-0.6718106 3.169103,-1.9630213 1.40909,-3.1363636 0,0 -4.267688,1.3693904 -6.136363,2.6818182 -1.631119,1.145584 -4.4545454,4.2727272 -4.4545454,4.2727272 z"
       id="path3915"
       inkscape:connector-curvature="0"
       sodipodi:nodetypes="cssssssssssssssssssssssssssssssssssssssscsc" />
    <path
       style="fill:#3c3c3c;fill-opacity:1;stroke:none;filter:url(#filter4115)"
       d="m 13.995757,28 c 0.513843,0.513843 1.180883,1.180884 1.818182,1.818182 0.397483,0.397483 2.560643,0 3.090908,0 0.207273,0 0.596218,0.312873 0.818181,0.09091 0.700112,-0.700111 -0.0067,-2.720551 0.09091,-2.818182 0.151793,-0.151794 0.254447,-0.536315 0.454545,-0.636364 0.570826,-0.285412 0.918028,-0.108783 1.272727,-0.818181 0.175998,-0.351995 -0.995955,-0.63232 -1.090909,-0.727273 -0.539026,-0.539026 0.754235,-1.245766 0.454546,-1.545455 -0.09003,-0.09003 -1.171254,-0.737837 -1.272728,-0.636363 -0.600106,0.600106 -0.4187,1.70935 -1.545454,2.272727 -0.351825,0.175912 -1.231884,-0.586231 -2.681818,0 C 14.584194,25.331804 12.709903,26.714147 13.995757,28 z"
       id="path3917"
       inkscape:connector-curvature="0"
       sodipodi:nodetypes="sssscssssssss" />
    <path
       style="fill:#464646;fill-opacity:1;stroke:none;filter:url(#filter4015)"
       d="m 32.359392,28.909091 c -0.789411,0.789411 0.897556,2.914858 1.636364,2.545454 0.303113,-0.151556 0.157192,-0.859839 0.272727,-1.090909 0.188678,-0.377357 0.687717,-0.869535 0.909091,-1.090909 0.21314,-0.21314 -0.680164,-1.5219 -0.909091,-1.636363 -0.303892,-0.151946 -0.290989,0.372767 -0.454546,0.454545 -0.269367,0.134684 -0.511416,0.161477 -0.863636,0.352273 -0.189619,0.102715 -0.07201,-0.05299 -0.590909,0.465909 z"
       id="path3919"
       inkscape:connector-curvature="0"
       sodipodi:nodetypes="ssssssss" />
    <path
       transform="translate(0.81393827,-0.18181818)"
       d="M 42.636364,23 A 20.636364,20.636364 0 1 1 1.363636,23 20.636364,20.636364 0 1 1 42.636364,23 z"
       sodipodi:ry="20.636364"
       sodipodi:rx="20.636364"
       sodipodi:cy="23"
       sodipodi:cx="22"
       id="path3941"
       style="fill:#ffffff;stroke:none;stroke-opacity:1;fill-opacity:1;opacity:0.10000000000000001"
       sodipodi:type="arc" />
    <path
       sodipodi:type="arc"
       style="fill:none;stroke:#414141;stroke-opacity:1;fill-opacity:1;opacity:1"
       id="path3935"
       sodipodi:cx="22"
       sodipodi:cy="23"
       sodipodi:rx="20.636364"
       sodipodi:ry="20.636364"
       d="M 42.636364,23 A 20.636364,20.636364 0 1 1 1.363636,23 20.636364,20.636364 0 1 1 42.636364,23 z"
       transform="translate(0.81393827,-0.18181818)" />
  </g>
</svg>
